<svg xmlns="http://www.w3.org/2000/svg" width="32" height="32" viewBox="0 0 32 32">
    <g data-name="Gruppe 8644">
        <circle data-name="Ellipse 165" cx="16" cy="16" r="16" style="fill:#633bb0"/>
        <path data-name="Pfad 5344" d="M4.8.621a1.783 1.783 0 0 1 2.7 0L12.081 6.9c.609.835-.144 1.883-1.352 1.883H1.568C.36 8.783-.393 7.735.216 6.9z" transform="translate(9.852 10.608)" style="fill:#effcfc"/>
    </g>
</svg>
