<svg xmlns="http://www.w3.org/2000/svg" width="15" height="12.273" viewBox="0 0 15 12.273">
    <path data-name="Polygon 43" d="M6.22 2.094a1.5 1.5 0 0 1 2.56 0l4.825 7.9a1.5 1.5 0 0 1-1.28 2.282h-9.65a1.5 1.5 0 0 1-1.28-2.282z" transform="rotate(180 7.5 6.137)" style="fill:#633bb0"/>
</svg>
