<svg xmlns="http://www.w3.org/2000/svg" width="10" height="12" viewBox="0 0 35 40">
    <path data-name="Pfad 4747" d="M15.6 2.475a5.147 5.147 0 0 1 8.8 0L39.3 27.5a4.99 4.99 0 0 1-4.4 7.5H5.1a4.99 4.99 0 0 1-4.4-7.5z" transform="rotate(90 17.5 17.5)" />
</svg>
