<svg xmlns="http://www.w3.org/2000/svg" width="40" height="40" viewBox="0 0 40 40">
    <g data-name="Gruppe 9194">
        <path data-name="Rechteck 3277" style="fill:none" d="M0 0h40v40H0z"/>
        <path data-name="Pfad 4904" d="M13.715 0A13.715 13.715 0 1 1 0 13.715 13.715 13.715 0 0 1 13.715 0z" transform="translate(6.039 7.398)" style="fill:#ff6142"/>
        <path data-name="Pfad 4239" d="M327.141 199.047a8.994 8.994 0 0 0-1.583-3.369 9.416 9.416 0 0 0-2.749-2.452 8.955 8.955 0 0 0-3.477-1.157 9.444 9.444 0 0 0-3.655.288 7.578 7.578 0 0 0-3.3 1.834 4.395 4.395 0 0 0-1.022 1.547.174.174 0 0 0 .009.148 1.739 1.739 0 0 0 .99 2.188 2.861 2.861 0 0 0 1.748.05c.615-.145 1.2-.388 1.8-.576a4.338 4.338 0 0 1 3.612.136 2.237 2.237 0 0 1 1.005 1.31 2.487 2.487 0 0 1-.1 1.457 4.256 4.256 0 0 1-.841 1.377 6.927 6.927 0 0 1-1.384 1.134 13.8 13.8 0 0 0-3.165 2.378 8.143 8.143 0 0 0-1.635 3.674 22.861 22.861 0 0 0-.345 4.208 2.734 2.734 0 0 0 .087.973 1.131 1.131 0 0 0 .412.543 1.686 1.686 0 0 0 1.349.2 1.946 1.946 0 0 0 1.238-.9A4.883 4.883 0 0 0 316.7 212a7.218 7.218 0 0 1 1.07-3.586 3.262 3.262 0 0 1 1.434-1.107 18.55 18.55 0 0 1 1.85-.54 13.6 13.6 0 0 0 3.41-1.42 6.067 6.067 0 0 0 2.4-2.543 5.822 5.822 0 0 0 .277-3.757z" transform="translate(-298.03 -190.058)" style="fill:#fff"/>
        <path data-name="Pfad 4240" d="M322.732 530.558c-.015-1.915-2.238-3.4-3.511-1.453a2.379 2.379 0 0 0-.121 2.537 2.151 2.151 0 0 0 2.111.929 1.742 1.742 0 0 0 1.093-.652 2.195 2.195 0 0 0 .428-1.361z" transform="translate(-305.029 -500.424)" style="fill:#fff"/>
        <path data-name="Pfad 4241" d="M341.937 203.18a8.986 8.986 0 0 0-1.583-3.368 9.382 9.382 0 0 0-2.748-2.452 8.948 8.948 0 0 0-3.477-1.158 9.445 9.445 0 0 0-3.654.289 7.568 7.568 0 0 0-3.3 1.833 4.413 4.413 0 0 0-1.023 1.547.174.174 0 0 0 .01.148 1.738 1.738 0 0 0 .99 2.188 2.86 2.86 0 0 0 1.748.05c.615-.145 1.2-.387 1.8-.575a4.333 4.333 0 0 1 3.611.136 2.235 2.235 0 0 1 1.005 1.31 2.48 2.48 0 0 1-.1 1.457 4.271 4.271 0 0 1-.841 1.377 6.928 6.928 0 0 1-1.384 1.134 13.816 13.816 0 0 0-3.165 2.378 8.082 8.082 0 0 0-1.635 3.671 22.869 22.869 0 0 0-.346 4.208 2.733 2.733 0 0 0 .087.973 1.134 1.134 0 0 0 .411.543 1.688 1.688 0 0 0 1.349.2 1.951 1.951 0 0 0 1.238-.9 4.876 4.876 0 0 0 .572-2.045 7.231 7.231 0 0 1 1.07-3.586 3.262 3.262 0 0 1 1.428-1.1 18.075 18.075 0 0 1 1.85-.541 13.574 13.574 0 0 0 3.41-1.42 6.063 6.063 0 0 0 2.4-2.543 5.811 5.811 0 0 0 .277-3.754z" transform="translate(-311.73 -193.885)" style="fill:#633bb0"/>
        <path data-name="Pfad 4242" d="M337.539 534.691c-.015-1.915-2.238-3.406-3.512-1.454a2.379 2.379 0 0 0-.121 2.537 2.15 2.15 0 0 0 2.111.928 1.736 1.736 0 0 0 1.09-.652 2.194 2.194 0 0 0 .432-1.359z" transform="translate(-318.737 -504.166)" style="fill:#633bb0"/>
    </g>
</svg>
