<svg xmlns="http://www.w3.org/2000/svg" width="424.553" height="410.565" viewBox="0 0 424.553 410.565">
  <g id="Group_9211" data-name="Group 9211" transform="translate(7420.484 8323)">
    <path id="Path_6214" data-name="Path 6214" d="M526.311,189.032c-4.092-12.683-16.516-18.78-27.757-24.033-13.459-6.289-27.406-11.445-41.359-16.512-6.75-2.451-13.491-4.988-20.428-6.87a85.813,85.813,0,0,0-21.357-2.981,164.19,164.19,0,0,0-22.274,1.507q-11.154,1.368-22.238,3.241a601.381,601.381,0,0,0-63.554,13.788c-8.014,2.268-16.387,4.353-23.7,8.451-28.852,16.156-3.5,58.718,1.039,80.944a263.723,263.723,0,0,1,5.21,44.663c.219,7.171.042,14.325-.168,21.493a126.432,126.432,0,0,0,.524,19.576c1.022,8.071-12.243,22.023-3.378,27.824,4.813,3.149,18.772.852,24.731,2.364,10.508,2.666,20.387,7.45,31.124,9.283,15.086,2.577,31.178-3.093,46.68-3.17,15.987-.08,31.833-2.452,47.794-2.487,7.682-.016,10.91,13.005,18.584,12.668,7.393-.325,14.837-.641,22.189-1.524,6.656-.8,21.988,5.06,27.772,1.524,4.762-2.912.338-14.66,2.352-19.918a19.83,19.83,0,0,0,.809-2.666.6.6,0,0,0,.3-.625c-.022-.182-.04-.365-.062-.547a18.866,18.866,0,0,0,.23-3.986.622.622,0,0,0-.7-.607c-2.3-26.6,2.548-53.156,7.969-79.139,2.916-13.982,6.021-27.931,8.379-42.021,1.157-6.917,2.216-13.885,2.785-20.877.525-6.46.523-13.134-1.487-19.363" transform="translate(-7576 -8323.003)" fill="#dff9f9"/>
    <path id="Path_6217" data-name="Path 6217" d="M436.455,25.354a13.584,13.584,0,0,0,6.033-3.615,8.345,8.345,0,0,0,2.271-8.4,10.628,10.628,0,0,0-5.882-6.184c-3.247-1.4-6.831-1.413-10.31-1.144a5.161,5.161,0,0,0-.72-4.479.907.907,0,0,0-1.621.348,3.618,3.618,0,0,1-.524,1.41,5.858,5.858,0,0,0-2.191-2.97c-.763-.653-1.939.356-1.324,1.19a1.75,1.75,0,0,1-.244,2.213,1.7,1.7,0,0,1-2.345.016c-.987-.662-1.782-1.561-2.789-2.2A9.841,9.841,0,0,0,413.315.165a8.226,8.226,0,0,0-6.962,1.653,6.222,6.222,0,0,0-1.428,6.526c.056.182.119.359.186.531a78.142,78.142,0,0,0-20.088-2.463c-8.995.136-18.437,2.161-26.1,7.061a22.232,22.232,0,0,0-4.973,4.267.827.827,0,0,0-.029,1.085,4.318,4.318,0,0,0-.878,3.939c.5,2.016,2.235,3.391,3.791,4.613,3.79,2.978,7.62,5.9,11.39,8.909A143.642,143.642,0,0,1,388.7,55.516c5.59,6.6,10.57,13.7,16.189,20.276a91.563,91.563,0,0,0,8.9,9.213,59.868,59.868,0,0,0,5.022,4.005,13.35,13.35,0,0,0,5.746,2.693c4.391.589,7.4-2.966,9.451-6.349a76.948,76.948,0,0,0,6.175-12.75c3.241-8.585,5.29-17.924,4.539-27.139a35.88,35.88,0,0,0-3.414-12.938,32.566,32.566,0,0,0-4.853-7.173" transform="translate(-7576 -8323.003)" fill="#685f58"/>
    <path id="Path_6218" data-name="Path 6218" d="M423.071,92.25a.913.913,0,0,0-1.4-.66,140.491,140.491,0,0,1-44.51,16.383q-6.588,1.216-13.27,1.8a.833.833,0,0,0-.786.811.887.887,0,0,0-.463.81q.066,6.108.131,12.217c.018,1.727-3.7,18.276-4.364,23.986-.33,2.832.374,5.265.132,8.106a20.8,20.8,0,0,0,.474,7.462c1.271,4.457,4.73,7.763,8.118,10.713q6.393,5.568,12.818,11.1l14.525,12.573a1.288,1.288,0,0,0,1.987-.269c6.093-8.748,12.16-17.6,17.6-26.774,2.547-4.3,7.917-14.98,9.3-19.8,1.4-4.877,1.4-49.66-.282-58.452" transform="translate(-7576 -8323.003)" fill="#8c5111"/>
    <path id="Path_6219" data-name="Path 6219" d="M434.673,82.952a6.385,6.385,0,0,0-5.575-1.407,60.673,60.673,0,0,0,.517-23.936,46.043,46.043,0,0,0-6.787-16.967A40.862,40.862,0,0,0,408.105,27.5a60.678,60.678,0,0,0-19.873-6.351,58.01,58.01,0,0,0-18.83.134,38.712,38.712,0,0,0-16.8,7.193,39.239,39.239,0,0,0-11.744,15.866A69.9,69.9,0,0,0,335.979,64.6c-2.134,20.549-11.166,40.381,6.444,54.812,23.586,19.322,59.246,10.769,75.358-9.9a12.762,12.762,0,0,0,4.841.2,15.743,15.743,0,0,0,9.6-5.5,24.336,24.336,0,0,0,4.941-10.347c.871-3.784.669-8.209-2.49-10.913" transform="translate(-7576 -8323.003)" fill="#a56416"/>
    <path id="Path_6220" data-name="Path 6220" d="M395.648,64.049l-.074-.091c-1.313-1.609-2.658-3.208-4.111-4.692-2.712-2.769-6.153-5.074-10.18-4.927-1.69.064-4.969,1.106-4.468,3.383.586,2.659,4.2,3.246,6.354,3.924a25.291,25.291,0,0,1,5.341,2.885l3.72,2.253q.93.563,1.859,1.127c.2.123,1.07.831,1.278.81.442.3,3.306,2.51,3.069.784a11.453,11.453,0,0,0-2.788-5.456" transform="translate(-7576 -8323.003)" fill="#514941"/>
    <path id="Path_6222" data-name="Path 6222" d="M361.419,63.805c-1.771-.446-2.526,1.463-2.846,2.843-1.317,5.678-3.632,11.071-5.885,16.427l-1.507,3.579c-.378.9-1.319,2.293-.9,3.3.4.946,1.886,1.144,2.758,1.388a28.563,28.563,0,0,0,3.45.722c1.211.184,2.43.307,3.651.406a4.243,4.243,0,0,0,2.746-.4c.963-.648.983-1.732.974-2.78a28.546,28.546,0,0,0-.291-3.8,62.965,62.965,0,0,1-.932-7.393c-.064-2.536.145-5.068.294-7.6.08-1.345.171-2.7.152-4.047a2.542,2.542,0,0,0-1.667-2.651" transform="translate(-7576 -8323.003)" fill="#8c5111"/>
    <path id="Path_6223" data-name="Path 6223" d="M373.4,74.305s4.307-6.256,9.272-5.969,8.707,7.006,8.707,7.006-4.364,4.379-9.329,4.092-8.65-5.129-8.65-5.129" transform="translate(-7576 -8323.003)" fill="#fff"/>
    <path id="Path_6224" data-name="Path 6224" d="M379.192,73.562a4.691,4.691,0,1,1,4.413,4.953,4.691,4.691,0,0,1-4.413-4.953" transform="translate(-7576 -8323.003)" fill="#3f3401"/>
    <path id="Path_6225" data-name="Path 6225" d="M373.4,74.305s3.686,4.843,8.65,5.13,9.33-4.093,9.33-4.093-3.743-6.72-8.707-7.006c-.111-.007-.222-.01-.332-.01-4.824,0-8.941,5.979-8.941,5.979" transform="translate(-7576 -8323.003)" fill="none"/>
    <path id="Path_6226" data-name="Path 6226" d="M337.686,69.059s3.235-4.862,7.39-4.6,7.657,5.553,7.657,5.553-3.788,3.412-7.943,3.148-7.1-4.1-7.1-4.1" transform="translate(-7576 -8323.003)" fill="#fff"/>
    <path id="Path_6227" data-name="Path 6227" d="M341.878,68.508a3.927,3.927,0,1,1,3.671,4.168,3.926,3.926,0,0,1-3.671-4.168" transform="translate(-7576 -8323.003)" fill="#3f3401"/>
    <path id="Path_6228" data-name="Path 6228" d="M337.686,69.059s2.949,3.84,7.1,4.1,7.943-3.148,7.943-3.148-3.5-5.29-7.658-5.554c-.109-.007-.218-.01-.327-.01-3.995,0-7.062,4.609-7.062,4.609" transform="translate(-7576 -8323.003)" fill="none"/>
    <path id="Path_6229" data-name="Path 6229" d="M376.843,99.04a15.016,15.016,0,0,1-6.5,1.487c-2.24,0-4.352-.81-6.546-1.134a7.734,7.734,0,0,0-3.22.122,12.256,12.256,0,0,1-1.5.51,2.963,2.963,0,0,1-1.367-.277c-2.873-.984-7.179.052-8.706,2.866-1.18,2.174-.205,4.263,1.779,5.533,6.055,3.875,15.378,1.892,21.189-1.474a22.4,22.4,0,0,0,3.773-2.747,5.952,5.952,0,0,0,2.282-3.88c.038-.6-.5-1.332-1.189-1.006" transform="translate(-7576 -8323.003)" fill="#8c5111"/>
    <path id="Path_6230" data-name="Path 6230" d="M434.587,48.768c-1.807-6.249-4.987-12.409-9.809-16.866-11.012-10.18-26.759-13.163-41.175-14.6a157.63,157.63,0,0,0-24.839-.52,84.287,84.287,0,0,0-11.322,1.2,22.147,22.147,0,0,0-9.509,3.94c-2.6,2.036-4.6,5.061-4.168,8.49a10.86,10.86,0,0,0,5.13,7.555c3.072,1.947,6.83,2.407,10.389,2.5a90.75,90.75,0,0,0,11.229-.478,75.1,75.1,0,0,0,22.39-5.538c1.249-.541,2.47-1.14,3.678-1.763.435,3.442,3.242,6.113,6.267,7.726,4.2,2.24,9.085,2.879,13.584,4.293,3.887,1.222,7.907,3.214,10.124,6.785a21.946,21.946,0,0,1,2.322,6.78q.869,3.793,1.462,7.644c.547,3.51,4.7,18.923-1.43,19.793a3.6,3.6,0,0,1-.4.027c-1.153-.028-.988,1.759.157,1.789a3.756,3.756,0,0,0,.584-.034c1.717-.184,3.267-1.3,4.723-2.145,12.3-7.116,14.52-23.071,10.615-36.575" transform="translate(-7576 -8323.003)" fill="#685f58"/>
    <path id="Path_6232" data-name="Path 6232" d="M567.06,384.366s12.133-34.973,12.475-49.808c.362-15.684.831-31.383.285-47.07-.947-27.2-5.179-55.133-17.574-78.8-7.683-14.67-18.858-27.358-32.2-35.173a7.974,7.974,0,0,0-2.318-1.291c-17.55-6.464-34.322-13.1-36.736,14.376a55.973,55.973,0,0,0,1.089,15.259c.968,5.028,2.352,9.929,3.641,14.858q2.262,8.645,4.322,17.357,4.093,17.31,7.385,34.848c2.2,11.718,4.048,23.557,2.71,35.564-1.434,12.872-5.553,25.1-9.607,37.137a1.4,1.4,0,0,0-.03.879c-1.637,4.8-3.249,9.619-4.642,14.519-3.535,12.435-5.9,26.493-1.255,38.982m.3-221.707a23.071,23.071,0,0,0-1.77,3.357,12.056,12.056,0,0,1,1.926-3.788c.008.068.016.135.023.2a1.557,1.557,0,0,0-.179.228" transform="translate(-7576 -8323.003)" fill="#9feeee"/>
    <path id="Path_6234" data-name="Path 6234" d="M510.771,386.77A77.964,77.964,0,0,0,501,377.256a.175.175,0,0,0,.023-.013c-1.017-.733-17.008-9.769-17.87-9.7-10.9-3.924-22.561-5.911-34.011-7.44-12.319-1.645-72.764-8.016-86.178-4.485-.226.06,7.506,8.495,7.375,8.621a1.073,1.073,0,0,0-.95,1,36.789,36.789,0,0,0,1.976,17.21,36.31,36.31,0,0,0,3.972,7.755c1.551,2.29,3.406,4.77,6.142,5.662,2.895.945,2.681,4.7,5.427,3.73,2.393-.843,35.991-7.257,57.5-9.671l.491.231c3.309,1.554,6.539,2.955,10.243,3.144,3.989.2,7.936-.723,11.841-1.394a73.843,73.843,0,0,1,9.73-1" transform="translate(-7576 -8317.003)" fill="#a56416"/>
    <path id="Path_6235" data-name="Path 6235" d="M398.524,366.507a78.148,78.148,0,0,0-13.066-23.714c-13.1.7-26.165,2.048-39.122,4.044a397.659,397.659,0,0,0-40.983,8.545q-9.909,2.616-19.672,5.748c-2.8.9-5.625,1.795-8.434,2.74,13.187-20.58,25.351-42.484,30.21-66.675q.906-4.512,1.448-9.085a1.541,1.541,0,0,0-.187-.971,116.467,116.467,0,0,0,5.7-47.163,118.726,118.726,0,0,0-15.433-49.511,107.37,107.37,0,0,0-8.261-12.252c-3.021-3.866-6.429-7.484-10.807-9.8a1.593,1.593,0,0,0-1.552-.452c-21.407,5.107-40.314,17.616-55.445,33.354C206.5,218.394,194.68,239.323,185.246,260.9c-4.913,11.239-9.247,22.728-13.347,34.285-4.217,11.888-8.107,23.908-11.2,36.14-5.886,23.239-5.15,29.8-5.15,29.8C210.5,416.083,386.691,414.056,398.524,406.9c-.6-9.511,3.119-31.375,0-40.392" transform="translate(-7576 -8323.003)" fill="#9feeee"/>
    <path id="Path_6237" data-name="Path 6237" d="M396.461,195.949a13.412,13.412,0,0,0-3.074-3.906l-4.418-4.438-8.834-8.876q-4.491-4.512-8.982-9.024a57.288,57.288,0,0,1-4.423-4.779,18.764,18.764,0,0,1-3.812-3.838,23.763,23.763,0,0,1-3.576-19.343c-1.292-.613-2.619.108-3.479,3.105-1.08,3.767-1.215,7.953-3.174,11.427-2,3.542-5.135,6.539-6.4,10.481-.734,2.3-.18,3.734.19,5.97,1.563,9.452,3.2,19.326,5.461,28.794q2.937,12.33,5.876,24.66c.628,2.634,1.328,6.254,4.245,7.3a4.736,4.736,0,0,0,4.375-.9c1.449-1.041,2.787-2.266,4.155-3.41a166.1,166.1,0,0,0,16.127-14.912,80.822,80.822,0,0,0,6.928-8.621c1.923-2.777,4.331-6.2,2.811-9.694" transform="translate(-7576 -8323.003)" fill="#9feeee"/>
    <path id="Path_6238" data-name="Path 6238" d="M436.54,161.828c-1.519-3.795-4.539-6.472-6.644-9.8-2.064-3.264-2.647-7.412-3.993-11.051-.93-2.515-.766-3.866-1.7-3.547.119,1.519-.012,4.971,0,6.495.051,6.176-1.882,11.114-4.684,16.67a43.585,43.585,0,0,1-3.918,6.553l-6.677,9.831-6.568,9.671-3.284,4.835a13.307,13.307,0,0,0-2.194,4.178c-.911,3.619,1.532,6.787,3.488,9.363a80.148,80.148,0,0,0,6.892,7.9,153.966,153.966,0,0,0,15.466,13.267c1.3,1.005,2.581,2.094,3.937,2.989a3.651,3.651,0,0,0,3.844.471c2.378-1.322,2.573-4.987,2.816-7.665q1.136-12.535,2.273-25.071c.873-9.625,1.174-19.6,1.455-29.139.066-2.257.38-3.739-.505-5.951" transform="translate(-7576 -8323.003)" fill="#9feeee"/>
    <path id="Path_6239" data-name="Path 6239" d="M398.458,225.935a1.256,1.256,0,0,0-.6.006,4.471,4.471,0,0,0-5.136,2.626,7.925,7.925,0,0,0-.668,3.23,5.054,5.054,0,0,0,.744,2.884c1.36,1.977,4,1.873,5.939.887a5.824,5.824,0,0,0,3.207-4.657,4.867,4.867,0,0,0-3.486-4.976m.8,5.61-.009.017a.291.291,0,0,1-.044.089c-.029.062-.058.125-.091.185-.078.144-.175.275-.257.416l-.01.019-.023.024c-.048.055-.094.112-.143.166q-.147.162-.308.312c-.067.061-.138.118-.205.179-.033.024-.065.048-.1.071-.136.094-.276.183-.421.264q-.1.054-.2.1l-.149.07-.161.064c-.069.025-.139.048-.209.07a4.956,4.956,0,0,1-.495.121c-.043.006-.105.015-.132.017-.076.006-.153.01-.23.012-.1,0-.191,0-.286,0-.009,0-.023,0-.035,0-.154-.033-.3-.071-.455-.113h0c-.012-.009-.019-.015-.036-.026-.033-.023-.147-.1-.17-.112-.094-.1-.226-.246-.115-.092a2.452,2.452,0,0,1-.146-.233c-.014-.026-.039-.083-.055-.119a3.407,3.407,0,0,1-.112-.365c-.011-.044-.019-.087-.027-.13,0,0-.027-.183-.031-.224a6.872,6.872,0,0,1,0-1.064c0,.017.012-.128.018-.206s.034-.232.031-.215c.036-.208.082-.415.138-.619.023-.081.047-.161.074-.241,0-.011.069-.17.084-.213a4.388,4.388,0,0,1,.262-.493c-.011.017.095-.133.129-.185s.131-.148.151-.168c.066-.067.135-.129.2-.192.019-.018.03-.029.039-.039a.532.532,0,0,0,.063-.032c.065-.036.127-.08.192-.117.016-.009.137-.065.179-.087.145-.051.291-.091.439-.132l.016,0c.109,0,.217-.005.326-.006h.024l.017.008c.118.044.248.064.368.107a1.015,1.015,0,0,0,.631,0,.9.9,0,0,0,.089.025h.008l.007.005c.118.064.235.133.352.2l.026.013c.046.047.1.087.15.133s.122.118.18.18c.024.026.084.1.112.139.06.087.121.174.174.266.043.074.076.156.121.228l.01.015.007.021c.045.131.092.26.127.394.021.082.034.165.056.246l.009.093c.012.156.009.31.007.465a.45.45,0,0,1-.005.06c-.007.041-.013.082-.021.122-.037.179-.092.35-.146.524l0,0,.008-.015" transform="translate(-7576 -8323.003)" fill="#9feeee"/>
    <path id="Path_6240" data-name="Path 6240" d="M399.247,231.563v0c-.031.06-.043.084-.045.091l.044-.088" transform="translate(-7576 -8323.003)" fill="#9feeee"/>
    <path id="Path_6241" data-name="Path 6241" d="M399.735,259.583c.1.008.192.005,0,0" transform="translate(-7576 -8323.003)" fill="#9feeee"/>
    <path id="Path_6242" data-name="Path 6242" d="M398.127,257.455l-.006.038,0,.034a.856.856,0,0,0,.029-.155c-.006.028-.016.055-.021.083" transform="translate(-7576 -8323.003)" fill="#9feeee"/>
    <path id="Path_6243" data-name="Path 6243" d="M404.041,255.679a4.331,4.331,0,0,0-1.863-2.022,5.882,5.882,0,0,0-3.9-.393,1.139,1.139,0,0,0-.778.653,4.819,4.819,0,0,0-1.918,3.909,4.284,4.284,0,0,0,.719,2.4,4.435,4.435,0,0,0,2.285,1.677,4.724,4.724,0,0,0,4.8-1.152,4.619,4.619,0,0,0,.652-5.074m-2.165,2.827c-.07.123-.125.254-.2.373l0,.005c-.032.039-.065.078-.1.113-.052.055-.105.108-.161.158l-.014.012c-.1.063-.2.137-.308.2-.042.023-.085.043-.128.064l-.075.027a3.35,3.35,0,0,1-.406.113l-.039.008c-.052.005-.155.017-.184.019a3.512,3.512,0,0,1-.423,0c-.065,0-.13-.014-.2-.015l.1,0a.635.635,0,0,1-.082-.01,3.481,3.481,0,0,1-.438-.115c-.025-.008-.052-.02-.078-.027s-.057-.033-.082-.046c-.114-.059-.217-.13-.325-.2-.065-.056-.127-.115-.186-.176-.032-.033-.064-.078-.1-.113l-.005-.008a3.908,3.908,0,0,1-.194-.345l0,0c-.024-.069-.046-.139-.065-.21s-.032-.122-.045-.183l0-.021c-.006-.147-.023-.292-.02-.44,0-.053.005-.107.009-.16,0,.02-.006.029-.013.053a.617.617,0,0,0,.015-.088l0-.059c0-.061.023-.1.024-.061a3.644,3.644,0,0,1,.1-.412c.005-.016.016-.047.028-.079s.039-.088.049-.107a3.5,3.5,0,0,1,.239-.409l0,0c.052-.058.1-.118.156-.173s.119-.112.178-.168a2.97,2.97,0,0,1,.439-.249.962.962,0,0,0,.2-.13c.161-.008.323-.019.485-.012.044,0,.091.01.138.016a.177.177,0,0,1,.05,0,.524.524,0,0,0,.088,0l-.044,0,.115.022c.1.023.209.049.311.08.037.012.074.026.111.037a3.616,3.616,0,0,1,.34.187l.023.016c.04.033.093.077.112.1.091.084.173.177.255.269.045.07.093.139.135.21.057.1.1.2.153.3l.015.039c.025.07.047.141.068.212.035.12.054.244.083.365.007.084.012.168.014.252s.006.163.005.254c0,.005,0,0,0,.008-.008.03-.01.062-.016.093-.015.082-.033.164-.055.245-.015.058-.032.115-.051.172" transform="translate(-7576 -8323.003)" fill="#9feeee"/>
    <path id="Path_6244" data-name="Path 6244" d="M400.26,255.653l-.019,0a.227.227,0,0,0-.025,0c-.016,0-.032,0-.049,0-.033,0-.015.015.093.008" transform="translate(-7576 -8323.003)" fill="#9feeee"/>
    <path id="Path_6245" data-name="Path 6245" d="M408.134,281.956a6.7,6.7,0,0,0-3.319-5.3,1.283,1.283,0,0,0-1.726.468,1.42,1.42,0,0,0-.136.447,4.529,4.529,0,0,0-3.683,1.626,4.15,4.15,0,0,0-1.016,2.825A4.945,4.945,0,0,0,399.505,285a6.722,6.722,0,0,0,2.35,1.727,5.085,5.085,0,0,0,3.607.5c2.044-.689,2.86-3.314,2.672-5.275m-2.513.892c0,.04-.007.084-.012.122a7.524,7.524,0,0,1-.215.886l-.008.028v0c-.045.075-.075.163-.115.241s-.073.137-.112.2c0,0-.119.181-.126.2-.042.047-.085.092-.125.141l-.046.058a.158.158,0,0,0-.035.019c-.018.012-.1.055-.141.075s-.081.02-.1.027c-.079.007-.158.006-.237.008l-.1,0a.2.2,0,0,0-.059-.014,4.988,4.988,0,0,1-.731-.186c-.057-.019-.279-.105-.3-.111-.143-.063-.285-.129-.423-.2q-.238-.126-.467-.271c-.068-.043-.132-.09-.2-.133l-.067-.042-.052-.046c-.149-.128-.3-.256-.433-.4-.038-.039-.176-.2-.208-.227a3.567,3.567,0,0,1-.281-.43c-.025-.045-.049-.092-.071-.138.046.087-.061-.151-.071-.18-.023-.071-.044-.143-.062-.216,0,.005-.02-.122-.033-.185s-.012-.171-.012-.164c0-.073,0-.144,0-.217s.027-.139.045-.208c.014-.051.031-.1.048-.151a1.243,1.243,0,0,1,.061-.132c.031-.058.064-.116.1-.172.02-.033.1-.126.107-.145a3.807,3.807,0,0,1,.268-.286c.022-.02.044-.038.066-.057-.007.009.118-.089.158-.116.071-.046.143-.089.217-.13.017-.01.113-.056.17-.085l.133-.051c.1-.032.191-.06.289-.083l.109-.022c-.13.028.108-.01.158-.012.066,0,.132,0,.2,0a.952.952,0,0,1,.109.01c.064.013.128.025.191.042s.408.159.111.027a1.387,1.387,0,0,0,1.493-.169c.152.234.293.469.426.716l.02.037c.021.052.041.1.061.156a5.751,5.751,0,0,1,.177.559c.038.147.065.3.1.444l0,.017c.008.088.018.176.024.265q.016.238.012.477c0,.071-.005.142-.009.212" transform="translate(-7576 -8323.003)" fill="#9feeee"/>
    <g id="Group_9210" data-name="Group 9210" transform="translate(142.504 885.185)">
      <g id="Group_9208" data-name="Group 9208" transform="translate(-83 -453)">
        <path id="Path_6258" data-name="Path 6258" d="M-7183.69-8566.775a4.66,4.66,0,0,1-4.508-4.122,4.812,4.812,0,0,1,3.832-5.508c3.74-.6,17.216-8.061,22.879-12.8s4.429-8.845,3.487-12.132c-1.322-4.617-4.237-8.308-9.392-11.046-3.9-2.074-16.159-.99-16.159-.99l-13.208-4.832s19.336-6.271,30.944-2.055,15.489,12.047,15.489,18.923a29.84,29.84,0,0,1-4.425,16.457c-6.545,10.965-26.468,17.767-28.262,18.05A4.229,4.229,0,0,1-7183.69-8566.775Z" transform="translate(3 5.708)" fill="#633bb0"/>
        <path id="Path_6259" data-name="Path 6259" d="M-7384.133-8484.9a5,5,0,0,1-1.779-.328,5,5,0,0,1-2.893-6.453c1.293-3.4,2.51-7.526,3.855-12.071,4.321-14.6,9.7-32.762,22.125-46.55,13.168-14.611,31.6-15.862,39.993-15.568l7.247-25.771c-1.158-5.771-14.9-20.419-.6-28.994,11.788-7.069,41.618-.959,41.618-.959l-1.483,8.137s-27.08-3.346-34.992,1.4c-8.165,4.9,4.128,13.928,5.461,19.389a5,5,0,0,1-.044,2.539l-8.694,30.918a5.012,5.012,0,0,1-5.546,3.593c-.218-.034-22-3-35.534,12.014-10.91,12.1-15.93,29.064-19.964,42.692-1.427,4.818-2.728,9.193-4.1,12.794A5,5,0,0,1-7384.133-8484.9Z" fill="#633bb0"/>
        <path id="Path_6260" data-name="Path 6260" d="M-7305.007-8484.9a4.975,4.975,0,0,1-2.3-.562,5,5,0,0,1-2.141-6.739c3.355-6.479,10.306-33.568,10.01-40.753-.262-6.34-6.852-19.564-18.515-22.238a5,5,0,0,1-3.756-5.991,5,5,0,0,1,5.991-3.757c16.231,3.722,25.837,21.031,26.272,31.574.374,9.049-6.972,37.752-11.121,45.765A5,5,0,0,1-7305.007-8484.9Z" fill="#633bb0"/>
        <path id="Path_6261" data-name="Path 6261" d="M-7299.574-8544.053a4.947,4.947,0,0,1-4.836-3.822,78.787,78.787,0,0,1-.877-9.466c-.2-3.141-.385-6.279-.616-7.7-1.516-9.277-4.672-18.259-6.728-21.26a5,5,0,0,1,1.3-6.951,5,5,0,0,1,6.95,1.3c3.632,5.3,6.948,16.741,8.346,25.3.261,1.6.5,5.133.727,8.674.211,3.322.387,6.651.639,7.839a5.038,5.038,0,0,1-3.794,5.962A5.1,5.1,0,0,1-7299.574-8544.053Z" fill="#633bb0"/>
        <path id="Path_6262" data-name="Path 6262" d="M-7341.534-8557.549a4.977,4.977,0,0,1-2.595-.729,5,5,0,0,1-1.671-6.871c8.832-14.511,28.41-22.806,29.239-23.151a5,5,0,0,1,6.536,2.685,5,5,0,0,1-2.679,6.542c-.174.073-17.428,7.417-24.553,19.124A5,5,0,0,1-7341.534-8557.549Z" fill="#633bb0"/>
      </g>
      <path id="Path_6268" data-name="Path 6268" d="M10,0c5.523,0,10,6.044,10,13.5,0,2.371.3,5.581-.617,7.8C17.8,25.171,13.767,27,10,27,4.477,27,0,20.956,0,13.5S4.477,0,10,0Z" transform="translate(-7477.24 -8946.66) rotate(11)" fill="#ff6142"/>
      <path id="Path_6267" data-name="Path 6267" d="M9.908,2.488c2.647,0,4.512,1.1,6.319,3.817C17.5,8.2,17.951,9,17.951,12.117c0,2.128.266,5.01-.554,7-1.424,3.475-5.041,5.117-8.421,5.117C4.018,24.234,0,18.809,0,12.117S4.951,2.488,9.908,2.488Z" transform="translate(-7395.768 -8949.352) rotate(11)" fill="#ff6142"/>
      <path id="Path_6266" data-name="Path 6266" d="M16.015,2.23c4.843,0,10.366,1.8,13.672,5.611,2.322,2.657,3.154,3.778,3.154,8.152,0,2.985.487,7.026-1.014,9.818-2.6,4.874-9.627,8.3-15.812,8.3-4.38,0-10.385-.509-13.688-3.749-3.077-3.012-2.9-10.044-2.9-14.9C-.568,6.081,6.947,2.23,16.015,2.23Z" transform="translate(-7287.768 -9033.352) rotate(11)" fill="#ff6142"/>
    </g>
  </g>
</svg>
