<svg xmlns="http://www.w3.org/2000/svg" xmlns:xlink="http://www.w3.org/1999/xlink" width="350" height="349.998" viewBox="0 0 350 349.998">
  <defs>
    <clipPath id="clip-path">
      <rect id="Rechteck_1807" data-name="Rechteck 1807" width="331.445" height="336.362" fill="none"/>
    </clipPath>
  </defs>
  <g id="Gruppe_2992" data-name="Gruppe 2992" transform="translate(-180 -4614.001)">
    <rect id="Rechteck_1806" data-name="Rechteck 1806" width="331.442" height="336.362" transform="translate(187.802 4620.942)" fill="#fff"/>
    <g id="Gruppe_2447" data-name="Gruppe 2447" transform="translate(187.8 4620.942)">
      <g id="Gruppe_2446" data-name="Gruppe 2446" clip-path="url(#clip-path)">
        <path id="Pfad_2282" data-name="Pfad 2282" d="M486.26,305.107l-24.643-89.884,6.722-27.441,215.053-16.8L711.951,229.5c5.044,10.923,4.2,41.444-5.877,52.086l46.481,37.8-2.8,43.4L520.7,394.154s-33.6-44.8-33.6-45.643-.84-43.4-.84-43.4" transform="translate(-441.363 -93.761)" fill="#ececed"/>
        <path id="Pfad_2283" data-name="Pfad 2283" d="M486.26,305.107l-24.643-89.884,6.722-27.441,215.053-16.8L711.951,229.5c5.044,10.923,4.2,41.444-5.877,52.086l46.481,37.8-2.8,43.4L520.7,394.154s-33.6-44.8-33.6-45.643S486.26,305.107,486.26,305.107Z" transform="translate(-441.363 -93.761)" fill="none" stroke="#000" stroke-width="0.785"/>
        <path id="Pfad_2284" data-name="Pfad 2284" d="M470.177,211.118,666.75,196m33.321,82.327c-.278-.845-31.921-82.886-31.921-82.886l9.8-23.8M481.659,304.085s.559-15.962-3.92-41.442c-2.654-15.1-13.16-74.484-13.16-74.484" transform="translate(-436.762 -92.738)" fill="none" stroke="#000" stroke-width="0.393"/>
      </g>
    </g>
    <path id="Pfad_2285" data-name="Pfad 2285" d="M471.267,223.5l33.6,43.122L737.561,237.78" transform="translate(-238.57 4608.79)" fill="none" stroke="#000" stroke-width="0.785"/>
    <g id="Gruppe_2449" data-name="Gruppe 2449" transform="translate(187.8 4620.942)">
      <g id="Gruppe_2448" data-name="Gruppe 2448" clip-path="url(#clip-path)">
        <path id="Pfad_2286" data-name="Pfad 2286" d="M634.135,288.869c-.031-4.285-5.207-7.159-11.554-6.418s-11.459,4.822-11.429,9.11l.148,18.191,23.243-2.722-.148-18.191ZM690.4,214.837l.278,12.32m-96.044,42.566a6.851,6.851,0,0,0-3.639-3.083c-1.964-.564-.284-1.124-.284-1.124m-26.88,3.363,12.044-1.121s-.843-3.637-.564-5.039,5.879-2.521,5.879-1.119,1.121,1.119,2.8,1.119a35.011,35.011,0,0,1,5.322.84,2.205,2.205,0,0,1,1.4,1.956l1.68-3.356,4.2,6.438m-17.642-9.521,3.083-5.6,10.359,8.681m29.962-3.92-2.518,7.56m-10.083-6.16L612,250.116l10.358,8.124,3.639,6.717-2.518-7-.838-26.882,64.4-6.441,35.282,28.844M605.271,242.838l-5.039,25.2m-8.959-5.32,3.92-25.483,10.078,5.6,5.6,24.362m-49.842-5.039,6.439-21.562,8.034,5.823M569.151,268.6l5.882-21.279,3.918,14m-16.24,2.521-12.32,1.4-1.119,1.4-23.8,1.959c-1.683-.559-4.2-1.959-6.441-1.959s-10.92,1.119-10.92,1.119l7,8.124,12.32-.843,1.121-1.959,27.442-1.959,3.078,1.959m80.647-24.923,8.4,7.279,14-1.678s5.039,3.642,4.2,3.642-12.039,2.237-12.039,2.237l-.557,1.964m-22.965-23.524a31.071,31.071,0,0,0,0,5.32c.278,1.961.278,7,.562,8.683s.843,6.438,7.278,9.8m.284.843V247.041s10.639-2.521,11.48-2.521-1.959-1.683-1.959-1.683,21.56-3.08,22.676-3.08,4.2-.276,5.325.278a25.418,25.418,0,0,0,4.48,1.683l9.243-1.4-8.683-9.24-9.521,1.121c-1.959.281-1.4,1.678-1.959,3.08L645.035,239.2l-3.92-2.518-10.361,1.4-8.116-7m-59.646,41.442-.281-8.681-8.678-9.8L540.589,256l-5.041-5.322,14.562-2.237M478.148,246.2l63-6.443,8.962,8.681.559,6.438M471.7,237.518,689,215.4" transform="translate(-425.689 -25.612)" fill="none" stroke="#000" stroke-width="0.393"/>
        <path id="Pfad_2287" data-name="Pfad 2287" d="M512.287,202.6l-23.3,3.236a8.952,8.952,0,0,0,.776,7.033l23.455-1.846.381.7,9.4-.585a23.057,23.057,0,0,0-1.188-10.793l-9.253,1.481Z" transform="translate(-399.448 -48.139)" fill="#fff"/>
        <path id="Pfad_2288" data-name="Pfad 2288" d="M512.287,202.6l-23.3,3.236a8.952,8.952,0,0,0,.776,7.033l23.455-1.846.381.7,9.4-.585a23.057,23.057,0,0,0-1.188-10.793l-9.253,1.481Z" transform="translate(-399.448 -48.139)" fill="none" stroke="#000" stroke-linecap="round" stroke-linejoin="round" stroke-width="0.589"/>
        <path id="Pfad_2289" data-name="Pfad 2289" d="M501.746,200.34c-.329.036-.329,2.482,0,5.463s.863,5.366,1.188,5.327.337-2.48.01-5.46-.866-5.366-1.2-5.33" transform="translate(-379.392 -48.139)" fill="none" stroke="#000" stroke-miterlimit="10" stroke-width="0.393"/>
        <path id="Pfad_2290" data-name="Pfad 2290" d="M540.764,217.514l-.424-8.839c-3.726-1.313-6.977-1.41-8.4-.935s-2.488,1.5-3.256,4.865a19.987,19.987,0,0,0-.442,6.1s1.167,1.675,6.725,1.507C537.025,220.15,540.647,218.648,540.764,217.514Zm2.73-19.537s-6.911,4.132-14.442.914m-27.324,2.521s7.575-3.621,7.57-6" transform="translate(-379.036 -55.795)" fill="none" stroke="#000" stroke-width="0.393"/>
        <path id="Pfad_2291" data-name="Pfad 2291" d="M519.635,276.956l-1.136,1.032c.278.554,2.391,4.265.9,7.531,4.211,3.277,13.551,10.731,13.98,11.143a24.034,24.034,0,0,1,8.377,1.068,8.506,8.506,0,0,0,.833-3.782c-.092-1.093-1.389-10.476-1.8-12.026a12.731,12.731,0,0,0-.9-2.508c-2.089,2.2-4.919,4.247-5.465,4.949s-3.307,2.95-5.121,2.625-5.118-1.389-5.866-2.648-3.8-7.383-3.8-7.383m85.834-93.679c-4.239,4.1-16.894,28.856-20,34.889s-3.767,12.657-5.271,19.678-11.7,27.61-15.617,34.337-3.369,25.383-3.295,28.343a24.566,24.566,0,0,1-1.208,9.365c-1.277,4.025-2.048,9.766-3.295,14.082s-6.471,5.264-11.37,4.1-4.247-3.039-4.937-8.6a6.229,6.229,0,0,1-5.085,4.5c-3.111.391-7.649-1.721-11.485-3.915s-10.019-6.477-15.178-9.689S496.438,302.387,494.1,300.3s-1.9-3.328-2.229-5.961.95-11.411,1.5-18.909,1.208-11.74,2.342-24.065a24.884,24.884,0,0,1,.077-6.546,10.683,10.683,0,0,1,3.111-6.035c1.826-2.013,12.619-8.41,13.456-8.813a13.1,13.1,0,0,0,4.393-2.924c2.12-2.051,11.63-11.556,17.956-15.617A84.6,84.6,0,0,0,550.243,197.9c2.6-3,42.668-68.268,44.169-70.538s75.92,0,75.92,0-60.617,51.816-64.864,55.912" transform="translate(-394.443 -163.099)" fill="#fce9e6"/>
        <path id="Pfad_2292" data-name="Pfad 2292" d="M519.635,276.956l-1.136,1.032c.278.554,2.391,4.265.9,7.531,4.211,3.277,13.551,10.731,13.98,11.143a24.034,24.034,0,0,1,8.377,1.068,8.506,8.506,0,0,0,.833-3.782c-.092-1.093-1.389-10.476-1.8-12.026a12.731,12.731,0,0,0-.9-2.508c-2.089,2.2-4.919,4.247-5.465,4.949s-3.307,2.95-5.121,2.625-5.118-1.389-5.866-2.648S519.635,276.956,519.635,276.956Zm85.834-93.679c-4.239,4.1-16.894,28.856-20,34.889s-3.767,12.657-5.271,19.678-11.7,27.61-15.617,34.337-3.369,25.383-3.295,28.343a24.566,24.566,0,0,1-1.208,9.365c-1.277,4.025-2.048,9.766-3.295,14.082s-6.471,5.264-11.37,4.1-4.247-3.039-4.937-8.6a6.229,6.229,0,0,1-5.085,4.5c-3.111.391-7.649-1.721-11.485-3.915s-10.019-6.477-15.178-9.689S496.438,302.387,494.1,300.3s-1.9-3.328-2.229-5.961.95-11.411,1.5-18.909,1.208-11.74,2.342-24.065a24.884,24.884,0,0,1,.077-6.546,10.683,10.683,0,0,1,3.111-6.035c1.826-2.013,12.619-8.41,13.456-8.813a13.1,13.1,0,0,0,4.393-2.924c2.12-2.051,11.63-11.556,17.956-15.617A84.6,84.6,0,0,0,550.243,197.9c2.6-3,42.668-68.268,44.169-70.538s75.92,0,75.92,0S609.716,179.18,605.468,183.277Z" transform="translate(-394.443 -163.099)" fill="none" stroke="#000" stroke-width="0.785"/>
        <path id="Pfad_2293" data-name="Pfad 2293" d="M502.189,181.882s3.545-.148,10.057,2.01a22.432,22.432,0,0,1,10.948,8.469m1.594,3.933c1.172,6.982,2.488,10.387,1.315,15.29s-1.354,17.7-1.755,21.611" transform="translate(-378.32 -76.823)" fill="none" stroke="#000" stroke-linecap="round" stroke-linejoin="round" stroke-width="0.785"/>
        <path id="Pfad_2294" data-name="Pfad 2294" d="M538.232,231.475s-4.978-1.76-8.778-1.285c-1.683-1.576-7.608-6.183-14.187-11.3,1.461-2.559-.623-7.355-.623-7.355m-4.426,9.771s3.619.437,5.049-2.416m7.128-7.13s0-7.133,3.8-7.608m-10.53,6.071s1.755,6.916,5.264,8.854,4.978,1.755,6.658.945,8.339-6.982,8.339-6.982c-2.447-7.976-11.447-12.91-13.421-17.045m-28.123-8.668s.439-8.374,4.939-12.8,4-2.957,7.253-5.442m3.387,54.926s10.752,9.953,10.747,12.328c3.55,2.235,15.546,7.863,15.842,12.583M509.12,212.523s2.158,10.131.843,11.482a15.591,15.591,0,0,1-8.6,4.939m15.727-26.331s2.779,12.723-12.471,9.577" transform="translate(-390.448 -96.715)" fill="none" stroke="#000" stroke-width="0.393"/>
        <path id="Pfad_2295" data-name="Pfad 2295" d="M556.224,203.027c.827,6.622-1.006,12.961-3.307,13.239-3.369.409-5.989-4.86-6.816-11.48s.6-12.169,3.821-12.5c2.306-.23,5.481,4.117,6.3,10.737" transform="translate(-310.445 -60.661)" fill="#fff"/>
        <path id="Pfad_2296" data-name="Pfad 2296" d="M556.224,203.027c.827,6.622-1.006,12.961-3.307,13.239-3.369.409-5.989-4.86-6.816-11.48s.6-12.169,3.821-12.5C552.227,192.06,555.4,196.407,556.224,203.027Z" transform="translate(-310.445 -60.661)" fill="none" stroke="#000" stroke-width="0.393"/>
      </g>
    </g>
    <path id="Pfad_2297" data-name="Pfad 2297" d="M581.194,197.626l.536,1.961.064,2.357-.284,2.5-55.31,6.906-1.119-8.944,55.312-6.911Z" transform="translate(-154.946 4565.272)" fill="#fff"/>
    <path id="Pfad_2298" data-name="Pfad 2298" d="M581.194,197.626l.536,1.961.064,2.357-.284,2.5-55.31,6.906-1.119-8.944,55.312-6.911Z" transform="translate(-154.946 4565.272)" fill="none" stroke="#000" stroke-width="0.393"/>
    <rect id="Rechteck_1809" data-name="Rechteck 1809" width="55.867" height="1.697" transform="translate(370.244 4771.001) rotate(-7.119)" fill="#fff"/>
    <rect id="Rechteck_1810" data-name="Rechteck 1810" width="55.867" height="1.697" transform="translate(370.244 4771.001) rotate(-7.119)" fill="none" stroke="#000" stroke-width="0.393"/>
    <line id="Linie_30" data-name="Linie 30" x2="0.391" y2="3.139" transform="translate(407.931 4768.824)" fill="none" stroke="#000" stroke-width="0.393"/>
    <line id="Linie_31" data-name="Linie 31" x2="0.34" y2="2.745" transform="translate(407.218 4763.105)" fill="none" stroke="#000" stroke-width="0.393"/>
    <g id="Gruppe_2451" data-name="Gruppe 2451" transform="translate(187.8 4620.942)">
      <g id="Gruppe_2450" data-name="Gruppe 2450" clip-path="url(#clip-path)">
        <path id="Pfad_2299" data-name="Pfad 2299" d="M523.538,194.3l13.007-1.686c.659-.084,1.016.84,1.305,2.2s.5,3.029.5,3.029l2.809-.352.041,2.789c-.209.268-1.425,1.693-2.35.6a2.419,2.419,0,0,1-1.693,2.937l1.466,11.768a1.956,1.956,0,0,0,3.573.945c.728-.028,1.415.13,1.438.794a12.933,12.933,0,0,0,.521,2.237l-2.684.4.135,2.47c.069,1.565.669,2.947-.758,3.185s-13.735,1.714-13.735,1.714Z" transform="translate(-345.146 -60.144)" fill="#fff"/>
        <path id="Pfad_2300" data-name="Pfad 2300" d="M523.538,194.3l13.007-1.686c.659-.084,1.016.84,1.305,2.2s.5,3.029.5,3.029l2.809-.352.041,2.789c-.209.268-1.425,1.693-2.35.6a2.419,2.419,0,0,1-1.693,2.937l1.466,11.768a1.956,1.956,0,0,0,3.573.945c.728-.028,1.415.13,1.438.794a12.933,12.933,0,0,0,.521,2.237l-2.684.4.135,2.47c.069,1.565.669,2.947-.758,3.185s-13.735,1.714-13.735,1.714Z" transform="translate(-345.146 -60.144)" fill="none" stroke="#000" stroke-width="0.393"/>
        <path id="Rechteck_1811" data-name="Rechteck 1811" d="M.849,0H9.559a.849.849,0,0,1,.849.849v24.3a.848.848,0,0,1-.848.848H.848A.848.848,0,0,1,0,25.146V.849A.849.849,0,0,1,.849,0Z" transform="matrix(0.992, -0.124, 0.124, 0.992, 177.525, 137.36)" fill="#fff"/>
        <path id="Rechteck_1812" data-name="Rechteck 1812" d="M.849,0H9.559a.849.849,0,0,1,.849.849v24.3a.848.848,0,0,1-.848.848H.848A.848.848,0,0,1,0,25.146V.849A.849.849,0,0,1,.849,0Z" transform="matrix(0.992, -0.124, 0.124, 0.992, 177.525, 137.36)" fill="none" stroke="#000" stroke-width="0.393"/>
        <path id="Pfad_2301" data-name="Pfad 2301" d="M519.722,190.449l1.747-1.55,1.882-.478c8.967,12.586,11.26,20.73,11.84,28.3,0,0,2.173,16.891-4.949,30.266l-1.525.437-1.872-.919.156-.682-.59-.355c.258-2.819.447-9.089-.771-12.514l-.38-1.075c-.393-1.106-.225-.85-.478-1.425a4.16,4.16,0,0,1-.286-1.3l-2.654-23.2a6.83,6.83,0,0,0,.36-1.5c0-.488.013-.853.013-.853l-.511-.176c.064-.49-.49-8.31-2.281-11.967l.335-.71Z" transform="translate(-351.54 -66.66)" fill="#fff"/>
        <path id="Pfad_2302" data-name="Pfad 2302" d="M519.722,190.449l1.747-1.55,1.882-.478c8.967,12.586,11.26,20.73,11.84,28.3,0,0,2.173,16.891-4.949,30.266l-1.525.437-1.872-.919.156-.682-.59-.355c.258-2.819.447-9.089-.771-12.514l-.38-1.075c-.393-1.106-.225-.85-.478-1.425a4.16,4.16,0,0,1-.286-1.3l-2.654-23.2a6.83,6.83,0,0,0,.36-1.5c0-.488.013-.853.013-.853l-.511-.176c.064-.49-.49-8.31-2.281-11.967l.335-.71Z" transform="translate(-351.54 -66.66)" fill="none" stroke="#000" stroke-width="0.393"/>
        <path id="Pfad_2303" data-name="Pfad 2303" d="M520.224,188.608s4.865,7.4,5.4,9.753.587,3.752-1.305,4.592-2.579,1.233-2.85,1.992-.465,2.061-.061,4.8.258,3.062.845,3.9a4.35,4.35,0,0,1,.761,2.7c.112,1.377.237,1.91-.043,2.551a11.5,11.5,0,0,0,.036,4.181c.22,1.732.434,4.916,3.289,5.961s4.526,1.734,3.923,5.634a97.107,97.107,0,0,1-2.809,11.99" transform="translate(-350.296 -66.369)" fill="#fff"/>
        <path id="Pfad_2304" data-name="Pfad 2304" d="M520.224,188.608s4.865,7.4,5.4,9.753.587,3.752-1.305,4.592-2.579,1.233-2.85,1.992-.465,2.061-.061,4.8.258,3.062.845,3.9a4.35,4.35,0,0,1,.761,2.7c.112,1.377.237,1.91-.043,2.551a11.5,11.5,0,0,0,.036,4.181c.22,1.732.434,4.916,3.289,5.961s4.526,1.734,3.923,5.634a97.107,97.107,0,0,1-2.809,11.99" transform="translate(-350.296 -66.369)" fill="none" stroke="#000" stroke-width="0.393"/>
      </g>
    </g>
    <path id="Pfad_2305" data-name="Pfad 2305" d="M551.441,196.078l-44.686,5.8-3.55,1.236-1.754,1.42.332,5.69.493,4.469,1.083,5.6,2.048.945,3.747.322,44.737-5.366-1.239-9.914.064-.008Z" transform="translate(-191.667 4566.181)" fill="#fff"/>
    <path id="Pfad_2306" data-name="Pfad 2306" d="M551.441,196.078l-44.686,5.8-3.55,1.236-1.754,1.42.332,5.69.493,4.469,1.083,5.6,2.048.945,3.747.322,44.737-5.366-1.239-9.914.064-.008Z" transform="translate(-191.667 4566.181)" fill="none" stroke="#000" stroke-width="0.393"/>
    <g id="Gruppe_2453" data-name="Gruppe 2453" transform="translate(187.8 4620.942)">
      <g id="Gruppe_2452" data-name="Gruppe 2452" clip-path="url(#clip-path)">
        <path id="Pfad_2307" data-name="Pfad 2307" d="M504.409,214.235a.5.5,0,1,1-.968.123l-1.8-14.391a.5.5,0,1,1,.965-.117" transform="translate(-379.174 -49.724)" fill="#fff"/>
        <path id="Pfad_2308" data-name="Pfad 2308" d="M504.409,214.235a.5.5,0,1,1-.968.123l-1.8-14.391a.5.5,0,1,1,.965-.117" transform="translate(-379.174 -49.724)" fill="none" stroke="#000" stroke-width="0.393"/>
        <path id="Pfad_2309" data-name="Pfad 2309" d="M505.606,214.086a.5.5,0,1,1-.968.123l-1.8-14.391a.544.544,0,0,1,.409-.644.551.551,0,0,1,.557.526" transform="translate(-377.314 -49.955)" fill="#fff"/>
        <path id="Pfad_2310" data-name="Pfad 2310" d="M505.606,214.086a.5.5,0,1,1-.968.123l-1.8-14.391a.544.544,0,0,1,.409-.644.551.551,0,0,1,.557.526" transform="translate(-377.314 -49.955)" fill="none" stroke="#000" stroke-width="0.393"/>
        <path id="Pfad_2311" data-name="Pfad 2311" d="M506.8,213.938a.5.5,0,1,1-.968.123l-1.8-14.391a.5.5,0,1,1,.968-.12" transform="translate(-375.456 -50.189)" fill="#fff"/>
        <path id="Pfad_2312" data-name="Pfad 2312" d="M506.8,213.938a.5.5,0,1,1-.968.123l-1.8-14.391a.5.5,0,1,1,.968-.12" transform="translate(-375.456 -50.189)" fill="none" stroke="#000" stroke-width="0.393"/>
        <path id="Pfad_2313" data-name="Pfad 2313" d="M508,213.788a.5.5,0,1,1-.968.123l-1.8-14.389a.5.5,0,1,1,.968-.12" transform="translate(-373.597 -50.421)" fill="#fff"/>
        <path id="Pfad_2314" data-name="Pfad 2314" d="M508,213.788a.5.5,0,1,1-.968.123l-1.8-14.389a.5.5,0,1,1,.968-.12" transform="translate(-373.597 -50.421)" fill="none" stroke="#000" stroke-width="0.393"/>
      </g>
    </g>
    <rect id="Rechteck_1815" data-name="Rechteck 1815" width="39.174" height="14.622" transform="translate(321.045 4769.926) rotate(-7.116)" fill="#fff"/>
    <rect id="Rechteck_1816" data-name="Rechteck 1816" width="39.174" height="14.622" transform="translate(321.045 4769.926) rotate(-7.116)" fill="none" stroke="#000" stroke-width="0.393"/>
    <g id="Gruppe_2455" data-name="Gruppe 2455" transform="translate(187.8 4620.942)">
      <g id="Gruppe_2454" data-name="Gruppe 2454" clip-path="url(#clip-path)">
        <path id="Pfad_2315" data-name="Pfad 2315" d="M544.909,202.46a2.174,2.174,0,0,1-1.88,2.418L509.1,209.117a2.17,2.17,0,0,1-2.416-1.885l-.258-2.061a2.17,2.17,0,0,1,1.88-2.421l33.926-4.234a2.167,2.167,0,0,1,2.418,1.882Z" transform="translate(-371.762 -50.999)" fill="#fff"/>
        <path id="Pfad_2316" data-name="Pfad 2316" d="M544.909,202.46a2.174,2.174,0,0,1-1.88,2.418L509.1,209.117a2.17,2.17,0,0,1-2.416-1.885l-.258-2.061a2.17,2.17,0,0,1,1.88-2.421l33.926-4.234a2.167,2.167,0,0,1,2.418,1.882Z" transform="translate(-371.762 -50.999)" fill="none" stroke="#000" stroke-width="0.393"/>
      </g>
    </g>
    <line id="Linie_32" data-name="Linie 32" x1="2.462" y1="19.701" transform="translate(320.553 4767.442)" fill="none" stroke="#000" stroke-width="0.393"/>
    <line id="Linie_33" data-name="Linie 33" x2="0.792" y2="6.362" transform="translate(309.838 4775.831)" fill="none" stroke="#000" stroke-width="0.393"/>
    <line id="Linie_34" data-name="Linie 34" x1="7.166" y2="0.896" transform="translate(371.516 4766.729)" fill="none" stroke="#000" stroke-width="0.393"/>
    <line id="Linie_35" data-name="Linie 35" x1="7.524" y2="0.945" transform="translate(372.299 4775.863)" fill="none" stroke="#000" stroke-width="0.393"/>
    <g id="Gruppe_2457" data-name="Gruppe 2457" transform="translate(187.8 4620.942)">
      <g id="Gruppe_2456" data-name="Gruppe 2456" clip-path="url(#clip-path)">
        <path id="Pfad_2317" data-name="Pfad 2317" d="M514.536,199.919s3.072-3.951,2.963-7.207m-15.77,12.9s7.575-3.621,7.57-6" transform="translate(-379.036 -59.992)" fill="none" stroke="#000" stroke-width="0.393"/>
        <path id="Pfad_2318" data-name="Pfad 2318" d="M502.5,227.639l.879,4.546,2.048.945,3.747.322,43.168-5.179.1.876a4.231,4.231,0,0,0,.286,1.3c.256.575.092.317.478,1.42l.385,1.083c1.213,3.422,1.027,9.689.771,12.509l.281.766.151.271,1.872.919,1.525-.434a44.389,44.389,0,0,0,4.352-13.273c3.034-.363,11.485-1.387,12.652-1.581,1.428-.24.828-1.622.756-3.187l-.13-2.467,2.682-.4a13.119,13.119,0,0,1-.521-2.237c-.023-.661-.71-.822-1.435-.792a1.837,1.837,0,0,0-1.228.822,1.817,1.817,0,0,0-2.345-1.772l-.125-1,43.319-5.412c1.254,4.107,3.322,6.878,5.795,6.576,2.3-.278,4.137-6.62,3.31-13.239s-4-10.969-6.308-10.737c-2.536.255-3.953,3.759-4.04,8.469l-43.192,5.4-.227-1.823a2.422,2.422,0,0,0,1.693-2.94c.925,1.1,2.138-.327,2.35-.592l-.043-2.789-2.809.352s-.207-1.67-.5-3.029-.649-2.286-1.308-2.2L558.735,200.7a84.238,84.238,0,0,0-7.437-12.287l-1.88.478-1.747,1.55.033.3-.332.71c1.79,3.657,2.345,11.475,2.286,11.968l.5.176s-.01.365-.01.85a6.939,6.939,0,0,1-.36,1.5l.25,2.2-43.263,5.621-3.547,1.236-1.755,1.422.309,5.368a.493.493,0,0,0-.186-.107" transform="translate(-379.426 -66.667)" fill="none" stroke="#000" stroke-width="0.785"/>
        <path id="Pfad_2319" data-name="Pfad 2319" d="M531.643,196.2c-.411,27.807-6.75,28.213-11.452,28.826s-8.992-3.473-9.2-5.928c0,0-1.022-9.4,2.043-25.963" transform="translate(-364.894 -59.336)" fill="#fce9e6"/>
        <path id="Pfad_2320" data-name="Pfad 2320" d="M531.643,196.2c-.411,27.807-6.75,28.213-11.452,28.826s-8.992-3.473-9.2-5.928c0,0-1.022-9.4,2.043-25.963" transform="translate(-364.894 -59.336)" fill="none" stroke="#000" stroke-linecap="round" stroke-linejoin="round" stroke-width="0.785"/>
        <path id="Pfad_2321" data-name="Pfad 2321" d="M518.544,199.236a6.469,6.469,0,0,0-4.842,1.913,4.914,4.914,0,0,0-1.673,3.527,46.552,46.552,0,0,0-.24,6.012s.937,1.915,10.313,1.343c2.485-.151,2.536-6.048,2.332-7.685s-1.282-4.9-5.889-5.11" transform="translate(-363.42 -49.864)" fill="#fce9e6"/>
        <path id="Pfad_2322" data-name="Pfad 2322" d="M518.544,199.236a6.469,6.469,0,0,0-4.842,1.913,4.914,4.914,0,0,0-1.673,3.527,46.552,46.552,0,0,0-.24,6.012s.937,1.915,10.313,1.343c2.485-.151,2.536-6.048,2.332-7.685S523.151,199.443,518.544,199.236Z" transform="translate(-363.42 -49.864)" fill="none" stroke="#000" stroke-linecap="round" stroke-linejoin="round" stroke-width="0.393"/>
      </g>
    </g>
    <g id="Gruppe_2991" data-name="Gruppe 2991">
      <path id="Pfad_2324" data-name="Pfad 2324" d="M580.331,225.9c-.026,0-.051.084-.077.267a31.99,31.99,0,0,0-.094,4.079c.925,28.647.876,61.235.513,91.909a17.4,17.4,0,0,0,.171,3.524c.01.028.018.041.028.041a11.267,11.267,0,0,0,.184-2.6c.36-32.043.4-65.505-.549-95.4a6.559,6.559,0,0,0-.176-1.818" transform="translate(-69.392 4611.867)" fill="#c5e3db"/>
      <g id="Gruppe_2990" data-name="Gruppe 2990" transform="translate(180 4614)">
        <path id="Pfad_2323" data-name="Pfad 2323" d="M599.894,138.43c-5.625,0-10.357.27-10.878.607-.647.375,3.972.7,9.831.74q29.369.241,58.959.487l-74.4-.4c-13.428-.314-26.845-.63-40.371-.947-1.168-.031-2.388-.046-3.594-.046a80.6,80.6,0,0,0-8.876.37c-.429.069-.6.143-.6.214q-39.794-.214-79.165-.426-.089,38.718-.175,77.034.085,35.25.167,70.12.37,69.727,1.73,137.8c.085,7.35.49,12.539.94,12.539.059,0,.115-.084.175-.26.514-1.544.852-9.376.757-17.645-.116-65.523-1.268-129.115-1.34-195.172q.081-41.352.162-82.015l178.237,1.054,65.657,1.519c-6.732-.033-13.477-.069-20.273-.1l-110.606-.643q-27.363-.061-54.615-.117l-56.494.189q.185,19.574.37,39.265.3,18.754.611,37.687c1.838,93.27,4.837,171.386,7.284,257.1.015.679.038,1.294.067,1.835l.722-.033c.105-2.042.131-4.936.064-7.618-1.828-88.577-5.63-159.457-6.886-255.777q-.185-17.973-.37-35.592-.092-17.74-.185-35.2l54.918,0c18.131.082,36.188.163,54.273.242,36.165.214,72.438.431,109.615.651q29.134.05,57.76.1,28.329-.1,56.217-.194c.013,2.029.026,4.012.038,6q-.22,19.225-.441,38.537-.139,19.424-.27,38.874l-.362-82.38-14.375.069c-72.466.309-143.785.628-215.879.628q-6.146,0-12.306,0c-11.613,0-21.146.561-21.436,1.284-.226.709,9.145,1.3,20.67,1.312,31.99.12,63.824.179,95.689.179,45.341,0,90.734-.117,136.614-.347l7.949-.066c.483,109.992.965,219.728,1.443,328.184l-113.14.947q-57.914.6-115.153,1.547c-4.591.028-8.257.265-7.79.549.128.283,4.085.5,8.447.5h.4l-2.09-.2c19.574.3,39.495.4,59.593.4,31.931,0,64.3-.26,96.418-.426,17.9.692,37.78,1.171,58.551,1.5q-30.1.211-60.474.426c-58.746.436-110.644,1.863-165.1,3.264-.675.02-.131.2-.059.324-2.031.1-2.311.286-.578.408.84.069,2.216.1,3.62.1,1.081,0,2.177-.02,3.063-.066l242.305-1.312q-.839-103.312-1.674-206.2c0-.674.005-1.337.008-2.049-.046-29.434-.093-58.612-.136-87.9,0-5.2-.257-9.512-.58-9.563-.085.028-.167.3-.239.8q-.173-18.188-.344-36.388c0-.444-.008-.883-.01-1.279-5.189.048-9.551.207-12.188.421-24.789-.421-48.853-.827-72.541-1.23l24.688-.054q30.813-.168,61.244-.334.208,22.843.416,45.446.277,21.124.552,41.99.763,41.685,1.5,82.135c1.176,53.827,2.693,105.658,4.508,154.641a5.107,5.107,0,0,0,.213,1.779c.054,0,.108-.286.157-.886a49.594,49.594,0,0,0,.072-5.88q-2.083-75.994-3.42-155.144-.555-39.572-1.119-79.849-.2-20.148-.4-40.469-.146-22.874-.3-45.936-17.357.073-34.925.143c-46.951-1.695-106.29-1.447-159.385-1.784-.385,0-.765-.005-1.142-.005m190.5,343.081-37.955-.3c12.6-.049,25.164-.1,37.51-.143-.18-44.971-.357-89.452-.534-133.882q.389,21.775.783,43.524c.077,14.848.154,29.942.231,45.1-.013,15.226-.026,30.516-.036,45.7m-326.236-1.85-.67.026c.087,1.447.208,2.256.331,2.256.062,0,.126-.2.182-.62.062-.393.116-.965.157-1.661" transform="translate(-450.633 -137.401)" fill="#c5e3db"/>
        <path id="Pfad_2325" data-name="Pfad 2325" d="M456.437,144.4q.065,15.347.133,30.918c.166,28.44.4,56.705,1.19,82.612a9.923,9.923,0,0,0,.258,2.9c.028,0,.059-.081.089-.252a43.725,43.725,0,0,0,.169-5.806q-.594-29.292-.828-59.043-.119-25.144-.24-50.563c68.646.331,138.352.665,207.282,1,34.9.013,69.892.025,104.605.041l.018.031.01.025.01,2.432q.027,6.371.051,12.729.069,12.715.138,25.367.23,25.293.457,50.271c.391,33.271.97,66.012,1.808,97.934a4.817,4.817,0,0,0,.189,1.714c.02,0,.043-.051.064-.158.087-.845.133-2.77.1-4.084q-1.218-47.458-1.777-96.744-.222-24.613-.447-49.57-.1-20.06-.2-40.363l-47.112-.028q-28.636-.122-57.5-.247c-36.883-.255-72.955-.5-108.885-.749q-26.95-.141-53.882-.285l-45.7-.079" transform="translate(-441.614 -128.166)" fill="#c5e3db"/>
        <path id="Pfad_2326" data-name="Pfad 2326" d="M537.063,144.035q-31.62,0-63.429.3a13.153,13.153,0,0,0-3.233.214,14.563,14.563,0,0,0,3.185.2h.276c30.764-.143,61.385-.283,92.152-.283,30.6,0,61.352.14,92.54.553,16.519.222,32.8.362,49.206.387l24.74-.053,12.524-.1,1.576-.018.743-.008.123-.008.513-.038,1.106-.084.033.356.066.723.036.379.015.2.018.675q.069,4.3.141,8.533.138,8.476.278,16.763c.171,11.064.34,21.934.506,32.787.291,21.715.465,43.383.34,66.463a20.342,20.342,0,0,0,.156,3.427l.008,0a8.907,8.907,0,0,0,.207-2.554c.2-23.284.094-45.853-.118-68.357-.125-11.25-.248-22.49-.373-33.793q-.1-8.476-.2-17.012-.05-3.644-.1-7.3l-.092-2.2-2.641.1q-28.207.244-56.068.221-38.826,0-77.266-.232-38.5-.176-76.967-.232" transform="translate(-419.916 -128.734)" fill="#c5e3db"/>
        <path id="Pfad_2327" data-name="Pfad 2327" d="M578.884,138.026a32.206,32.206,0,0,0-6.1.328c-.138.2,2.12.372,5.506.4q13.515.057,27.271.109c-.028,18.12-.054,36.472-.082,54.8.084,16,.168,31.985.25,47.722.3,31.458.9,61.915,1.938,89.533a3.973,3.973,0,0,0,.179,1.436c.046,0,.089-.224.128-.662a45.611,45.611,0,0,0,.061-4.823c-1-27.269-1.476-57.151-1.678-87.908-.043-15.378-.087-30.974-.13-46.573.036-18.181.069-36.36.1-54.294q-13.73-.031-27.166-.066h-.283" transform="translate(-260.827 -138.026)" fill="#c5e3db"/>
        <path id="Pfad_2328" data-name="Pfad 2328" d="M778.687,143.559l-69.32.2h-.094c-2.97,0-5.2.145-5.169.316-.023.186,2.416.328,5.414.331l68.447-.125q.253,43.176.508,86.174c-.069,2.075-.1,4.474-.072,6.995.386,47.169.761,93.052,1.149,140.753q.084,23.926.164,47.472-.05,20.866-.1,41.549-23.843-.107-47.633-.209-26.536-.031-53.246-.066l-79.723.634q-2.911,0-5.833.005c-4.62,0-9.255-.01-13.878-.02s-9.258-.02-13.84-.02c-11.347,0-22.449.061-32.879.333-25.9.675-49.219,1.6-71.859,2.6l-.718.031-5.93.267c-1.509.064-1.655.181-.5.26.485.048,1.371.076,2.281.076.687,0,1.387-.015,1.931-.048l2.24-.084c.222-.01.444-.018.667-.026,23.935-.924,49.982-1.928,74.1-2.857,49.019-.061,97.188-.209,145.268-.833l52.273.863,26.062.407c7.475.064,15.024.125,22.717.188,0-1.271,0-2.567,0-3.868-.036-32.367-.074-64.749-.11-96.923-.064-32.688-.217-65.159-.634-97.18.128-30.76.222-61.485.013-92.128,0-4.393-.222-7.95-.493-7.95h0c-.271,0-.49,3.573-.49,7.963q-.054,23.189-.1,46.311c-.066-.359-.135-.545-.209-.545a.08.08,0,0,0-.059.041q-.172-40.4-.345-80.891" transform="translate(-447.245 -129.47)" fill="#c5e3db"/>
      </g>
    </g>
  </g>
</svg>
