<svg xmlns="http://www.w3.org/2000/svg" xmlns:xlink="http://www.w3.org/1999/xlink" width="350" height="350" viewBox="0 0 350 350">
  <defs>
    <clipPath id="clip-path">
      <rect id="Rechteck_2182" data-name="Rechteck 2182" width="311.023" height="336.439" fill="none"/>
    </clipPath>
    <clipPath id="clip-path-2">
      <path id="Pfad_2751" data-name="Pfad 2751" d="M508.008,332.8c-.582,26.9-2.294,52.855-6.34,65.573-9.4,29.55-23,77.781-27.726,106.118s-3.147,70.835-4.721,75.561c-.92,2.751,1.119,50.134,2.978,89.187H761.423V332.8Z" transform="translate(-468.994 -332.796)" fill="none"/>
    </clipPath>
    <clipPath id="clip-path-4">
      <path id="Pfad_2756" data-name="Pfad 2756" d="M463.909,524.349H769.327V488.763L475.062,426Z" transform="translate(-463.909 -426.002)" fill="none"/>
    </clipPath>
    <clipPath id="clip-path-5">
      <rect id="Rechteck_2184" data-name="Rechteck 2184" width="331.512" height="336.439" fill="none"/>
    </clipPath>
    <clipPath id="clip-path-6">
      <path id="Pfad_2778" data-name="Pfad 2778" d="M567.136,411.255c0,6.3,3.776,11.4,8.432,11.4s8.43-5.1,8.43-11.4-3.773-11.4-8.43-11.4-8.432,5.1-8.432,11.4" transform="translate(-567.136 -399.857)" fill="none"/>
    </clipPath>
  </defs>
  <g id="Gruppe_2998" data-name="Gruppe 2998" transform="translate(-180 -397)">
    <rect id="Rechteck_2181" data-name="Rechteck 2181" width="331.512" height="336.439" transform="translate(188.353 403.76)" fill="#fff"/>
    <g id="Gruppe_2865" data-name="Gruppe 2865" transform="translate(208.842 403.76)">
      <g id="Gruppe_2864" data-name="Gruppe 2864" clip-path="url(#clip-path)">
        <path id="Pfad_2748" data-name="Pfad 2748" d="M507.09,299.086s4.93,119.151-5.421,151.685c-9.4,29.55-23,77.781-27.726,106.118s-3.147,70.838-4.723,75.561,5.551,140.815,5.551,140.815L767.624,775.3V316.135Z" transform="translate(-450.399 -385.197)" fill="#fce9e6"/>
      </g>
    </g>
    <g id="Gruppe_2867" data-name="Gruppe 2867" transform="translate(227.438 403.76)">
      <g id="Gruppe_2866" data-name="Gruppe 2866" clip-path="url(#clip-path-2)">
        <path id="Pfad_2749" data-name="Pfad 2749" d="M529.725,401.173c24.438,0,33.514-9.073,44.687-9.073s68.426,36.307,76.107,41.891,45.385,46.085,49.574,50.275,10.195,13.13,6.286,19.549c-5.765,9.474-28.627-2.79-28.627-2.79s10.284,11.692,4.608,18.714c-5.308,6.563-19.971,2.933-19.971,2.933s3.211,8.379-3.77,10.473-28.349-2.095-28.349-2.095-8.657,3.77-23.738,3.77-62.842-18.436-74.015-22.627-44.687-15.358-64.934-32.117-13.127-125.961-13.127-125.961l4.049.278s54.6,42.734,57.674,44.688,9.5,2.092,13.546,2.092" transform="translate(-493.48 -299.658)" fill="#fad0c8"/>
        <path id="Pfad_2750" data-name="Pfad 2750" d="M597.084,428.478l-43.29-32.817-3.436,4.81c8.172,8.573,15.051,15.881,16.7,17.534,4.189,4.189,10.195,13.127,6.284,19.549-5.471,8.989-26.308-1.581-28.415-2.682l-.02.12c1,1.178,9.778,11.85,4.417,18.484-1.834,2.271-4.805,3.272-7.888,3.676l-5.1.651,24.438,20.249Z" transform="translate(-364.313 -235.074)" fill="#fad0c8"/>
      </g>
    </g>
    <g id="Gruppe_2869" data-name="Gruppe 2869" transform="translate(208.842 403.76)">
      <g id="Gruppe_2868" data-name="Gruppe 2868" clip-path="url(#clip-path)">
        <path id="Pfad_2752" data-name="Pfad 2752" d="M506.423,305.051S511.352,408.964,501,441.5c-9.4,29.55-23,77.781-27.726,106.118s-1.022,67.962-2.6,72.685c-4.189,9.776,3.423,143.692,3.423,143.692l292.853,2.031V305.051Z" transform="translate(-449.732 -375.925)" fill="none" stroke="#000" stroke-width="0.915"/>
        <path id="Pfad_2753" data-name="Pfad 2753" d="M469.02,438.184c0-3.045.986-7.4,2.465-8.874,0,0-4.93,15.774,103.513,46.826,74.022,21.2,192.586,25.2,192.586,25.2v71.53l-292.13.5s-6.435-85.393-6.435-135.18" transform="translate(-450.357 -182.768)" fill="#dadada"/>
        <path id="Pfad_2754" data-name="Pfad 2754" d="M469.02,438.184c0-3.045.986-7.4,2.465-8.874,0,0-4.93,15.774,103.513,46.826,74.022,21.2,192.586,25.2,192.586,25.2v71.53l-292.13.5S469.02,487.971,469.02,438.184Z" transform="translate(-450.357 -182.768)" fill="none" stroke="#000" stroke-width="0.915"/>
      </g>
    </g>
    <g id="Gruppe_2871" data-name="Gruppe 2871" transform="translate(214.449 641.852)">
      <g id="Gruppe_2870" data-name="Gruppe 2870" clip-path="url(#clip-path-4)">
        <path id="Pfad_2755" data-name="Pfad 2755" d="M469.3,431.433s-2.958,6.907,18.239,16.267c37.956,16.76,69.123,27.45,97.6,34.013m-114.073,2.309s57.388,45.125,291.032,58.436" transform="translate(-455.75 -417.56)" fill="none" stroke="#000" stroke-width="0.457"/>
      </g>
    </g>
    <g id="Gruppe_2873" data-name="Gruppe 2873" transform="translate(188.355 403.76)">
      <g id="Gruppe_2872" data-name="Gruppe 2872" clip-path="url(#clip-path-5)">
        <path id="Pfad_2757" data-name="Pfad 2757" d="M527.117,398.332c24.438,0,33.514-9.076,44.687-9.076s68.426,36.307,76.107,41.893,45.385,46.085,49.577,50.274,10.192,13.127,6.284,19.549c-5.765,9.472-28.628-2.792-28.628-2.792s10.284,11.692,4.608,18.714c-5.308,6.563-19.97,2.933-19.97,2.933s3.211,8.379-3.77,10.473-28.349-2.095-28.349-2.095-8.657,3.77-23.738,3.77-62.842-18.436-74.015-22.625-44.687-15.36-64.934-32.117-13.127-125.964-13.127-125.964l4.049.278s54.6,42.734,57.674,44.688,9.5,2.095,13.546,2.095" transform="translate(-458.451 -304.077)" fill="#fce9e6"/>
        <path id="Pfad_2758" data-name="Pfad 2758" d="M527.117,398.332c24.438,0,33.514-9.076,44.687-9.076s68.426,36.307,76.107,41.893,45.385,46.085,49.577,50.274,10.192,13.127,6.284,19.549c-5.765,9.472-28.628-2.792-28.628-2.792s10.284,11.692,4.608,18.714c-5.308,6.563-19.97,2.933-19.97,2.933s3.211,8.379-3.77,10.473-28.349-2.095-28.349-2.095-8.657,3.77-23.738,3.77-62.842-18.436-74.015-22.625-44.687-15.36-64.934-32.117-13.127-125.964-13.127-125.964l4.049.278s54.6,42.734,57.674,44.688S523.068,398.332,527.117,398.332Z" transform="translate(-458.451 -304.077)" fill="none" stroke="#000" stroke-width="0.916"/>
        <path id="Pfad_2759" data-name="Pfad 2759" d="M469.15,367.562s9.076,5.587,24.019,5.587" transform="translate(-429.669 -278.753)" fill="none" stroke="#000" stroke-linecap="round" stroke-width="0.916"/>
        <path id="Pfad_2760" data-name="Pfad 2760" d="M472.451,406.438s-.146,8.369,13.771,13.807" transform="translate(-424.538 -218.322)" fill="none" stroke="#000" stroke-linecap="round" stroke-width="0.916"/>
        <path id="Pfad_2761" data-name="Pfad 2761" d="M491.9,378.117c2.445-4.189,8.029-12.918,15.012-11.871" transform="translate(-394.299 -280.933)" fill="none" stroke="#000" stroke-linecap="round" stroke-width="0.914"/>
        <path id="Pfad_2762" data-name="Pfad 2762" d="M506.955,374.34c-2.095,2.1-11.173,2.795-13.965,7.684s-4.189,21.644-4.189,21.644-13.265,11.871-13.965,16.06" transform="translate(-420.832 -268.217)" fill="none" stroke="#000" stroke-linecap="round" stroke-width="0.457"/>
        <path id="Pfad_2763" data-name="Pfad 2763" d="M504.629,378.987c0,3.492,3.492,9.776,22.344,18.155s28.628,21.647,38.4,30.723,26.533,28.628,26.533,28.628" transform="translate(-374.519 -260.994)" fill="none" stroke="#000" stroke-linecap="round" stroke-width="0.457"/>
        <path id="Pfad_2764" data-name="Pfad 2764" d="M496.156,390.741s31.419,16.757,44.687,26.533,44.687,37.285,47.479,40.777" transform="translate(-387.69 -242.722)" fill="none" stroke="#000" stroke-linecap="round" stroke-width="0.457"/>
        <path id="Pfad_2765" data-name="Pfad 2765" d="M483.855,401.675c4.189.7,10.473,1.4,16.06,4.887s27.93,18.854,43.987,26.533,34.914,17.457,34.914,17.457" transform="translate(-406.811 -225.726)" fill="none" stroke="#000" stroke-linecap="round" stroke-width="0.457"/>
        <path id="Pfad_2766" data-name="Pfad 2766" d="M522.123,387.461c1.4,4.189,4.189,9.776,7.681,12.568" transform="translate(-347.326 -247.821)" fill="none" stroke="#000" stroke-width="0.457"/>
        <path id="Pfad_2767" data-name="Pfad 2767" d="M512.283,396.208c3.492,3.492,9.076,11.171,18.154,13.265" transform="translate(-362.621 -234.224)" fill="none" stroke="#000" stroke-width="0.457"/>
        <path id="Pfad_2768" data-name="Pfad 2768" d="M502.169,406.6c6.284,5.587,10.473,9.776,16.06,11.871" transform="translate(-378.343 -218.078)" fill="none" stroke="#000" stroke-width="0.457"/>
        <path id="Pfad_2769" data-name="Pfad 2769" d="M559.483,406.541s-8.379-5.865-10.473-3.771a74.087,74.087,0,0,0-6.984,8.379c-1.395,2.095,1.257,9.079,7.124,12.987" transform="translate(-316.955 -224.726)" fill="none" stroke="#000" stroke-width="0.457"/>
        <path id="Pfad_2770" data-name="Pfad 2770" d="M547.071,410.148c-2.792,0-3.492,0-5.587,1.4s-4.189,4.189-5.586,6.284-2.792,4.189-1.395,6.284A29.969,29.969,0,0,0,539.39,429" transform="translate(-328.981 -212.555)" fill="none" stroke="#000" stroke-width="0.457"/>
        <path id="Pfad_2771" data-name="Pfad 2771" d="M539.211,416.72c-2.792-1.257-6.562-1.4-8.657.7s-6.284,9.079-3.492,10.473a57.181,57.181,0,0,0,7.681,2.795" transform="translate(-341.092 -203.764)" fill="none" stroke="#000" stroke-width="0.457"/>
        <path id="Pfad_2772" data-name="Pfad 2772" d="M516.863,418.622s-.838,5.587.559,6.284" transform="translate(-355.89 -199.382)" fill="none" stroke="#000" stroke-width="0.457"/>
        <path id="Pfad_2773" data-name="Pfad 2773" d="M593.016,426.292l-43.29-32.817-3.436,4.81c8.172,8.573,15.051,15.881,16.7,17.534,4.189,4.189,10.195,13.127,6.284,19.549-5.472,8.989-26.308-1.581-28.416-2.682l-.021.12c1,1.178,9.778,11.85,4.417,18.484-1.834,2.271-4.8,3.272-7.888,3.676l-.209,1.351L558.8,473.772Z" transform="translate(-323.955 -238.472)" fill="#fff"/>
        <path id="Pfad_2774" data-name="Pfad 2774" d="M593.016,426.292l-43.29-32.817-3.436,4.81c8.172,8.573,15.051,15.881,16.7,17.534,4.189,4.189,10.195,13.127,6.284,19.549-5.472,8.989-26.308-1.581-28.416-2.682l-.021.12c1,1.178,9.778,11.85,4.417,18.484-1.834,2.271-4.8,3.272-7.888,3.676l-.209,1.351L558.8,473.772Z" transform="translate(-323.955 -238.472)" fill="none" stroke="#000" stroke-width="0.916"/>
        <path id="Pfad_2775" data-name="Pfad 2775" d="M575.567,422.654c4.657,0,8.43-5.1,8.43-11.4s-3.773-11.4-8.43-11.4-8.43,5.1-8.43,11.4,3.773,11.4,8.43,11.4" transform="translate(-277.354 -228.55)" fill="#e6b8b3"/>
      </g>
    </g>
    <g id="Gruppe_2875" data-name="Gruppe 2875" transform="translate(478.135 575.066)">
      <g id="Gruppe_2874" data-name="Gruppe 2874" clip-path="url(#clip-path-6)">
        <path id="Pfad_2776" data-name="Pfad 2776" d="M575.33,421.035c4.3,0,7.783-4.422,7.783-9.878s-3.484-9.881-7.783-9.881-7.783,4.424-7.783,9.881,3.484,9.878,7.783,9.878" transform="translate(-566.497 -397.651)" fill="#fad0c8"/>
        <path id="Pfad_2777" data-name="Pfad 2777" d="M575.33,421.035c4.3,0,7.783-4.422,7.783-9.878s-3.484-9.881-7.783-9.881-7.783,4.424-7.783,9.881S571.031,421.035,575.33,421.035Z" transform="translate(-566.497 -397.651)" fill="none" stroke="#000" stroke-width="0.457"/>
      </g>
    </g>
    <g id="Gruppe_2877" data-name="Gruppe 2877" transform="translate(188.355 403.76)">
      <g id="Gruppe_2876" data-name="Gruppe 2876" clip-path="url(#clip-path-5)">
        <path id="Pfad_2779" data-name="Pfad 2779" d="M527.117,398.332c24.438,0,33.514-9.076,44.687-9.076s68.426,36.307,76.107,41.893,45.385,46.085,49.577,50.274,10.192,13.127,6.284,19.549c-5.765,9.472-28.628-2.792-28.628-2.792s10.284,11.692,4.608,18.714c-5.308,6.563-19.97,2.933-19.97,2.933s3.211,8.379-3.77,10.473-28.349-2.095-28.349-2.095-8.657,3.77-23.738,3.77-62.842-18.436-74.015-22.625-44.687-15.36-64.934-32.117-13.127-125.964-13.127-125.964l4.049.278s54.6,42.734,57.674,44.688S523.068,398.332,527.117,398.332Z" transform="translate(-458.451 -304.077)" fill="none" stroke="#000" stroke-width="0.916"/>
      </g>
    </g>
    <g id="Gruppe_2991" data-name="Gruppe 2991" transform="translate(0 -4217)">
      <path id="Pfad_2324" data-name="Pfad 2324" d="M580.331,225.9c-.026,0-.051.084-.077.267a31.99,31.99,0,0,0-.094,4.079c.925,28.647.876,61.235.513,91.909a17.4,17.4,0,0,0,.171,3.524c.01.028.018.041.028.041a11.267,11.267,0,0,0,.184-2.6c.36-32.043.4-65.505-.549-95.4a6.559,6.559,0,0,0-.176-1.818" transform="translate(-69.392 4611.867)" fill="#c5e3db"/>
      <g id="Gruppe_2990" data-name="Gruppe 2990" transform="translate(180 4614)">
        <path id="Pfad_2323" data-name="Pfad 2323" d="M599.894,138.43c-5.625,0-10.357.27-10.878.607-.647.375,3.972.7,9.831.74q29.369.241,58.959.487l-74.4-.4c-13.428-.314-26.845-.63-40.371-.947-1.168-.031-2.388-.046-3.594-.046a80.6,80.6,0,0,0-8.876.37c-.429.069-.6.143-.6.214q-39.794-.214-79.165-.426-.089,38.718-.175,77.034.085,35.25.167,70.12.37,69.727,1.73,137.8c.085,7.35.49,12.539.94,12.539.059,0,.115-.084.175-.26.514-1.544.852-9.376.757-17.645-.116-65.523-1.268-129.115-1.34-195.172q.081-41.352.162-82.015l178.237,1.054,65.657,1.519c-6.732-.033-13.477-.069-20.273-.1l-110.606-.643q-27.363-.061-54.615-.117l-56.494.189q.185,19.574.37,39.265.3,18.754.611,37.687c1.838,93.27,4.837,171.386,7.284,257.1.015.679.038,1.294.067,1.835l.722-.033c.105-2.042.131-4.936.064-7.618-1.828-88.577-5.63-159.457-6.886-255.777q-.185-17.973-.37-35.592-.092-17.74-.185-35.2l54.918,0c18.131.082,36.188.163,54.273.242,36.165.214,72.438.431,109.615.651q29.134.05,57.76.1,28.329-.1,56.217-.194c.013,2.029.026,4.012.038,6q-.22,19.225-.441,38.537-.139,19.424-.27,38.874l-.362-82.38-14.375.069c-72.466.309-143.785.628-215.879.628q-6.146,0-12.306,0c-11.613,0-21.146.561-21.436,1.284-.226.709,9.145,1.3,20.67,1.312,31.99.12,63.824.179,95.689.179,45.341,0,90.734-.117,136.614-.347l7.949-.066c.483,109.992.965,219.728,1.443,328.184l-113.14.947q-57.914.6-115.153,1.547c-4.591.028-8.257.265-7.79.549.128.283,4.085.5,8.447.5h.4l-2.09-.2c19.574.3,39.495.4,59.593.4,31.931,0,64.3-.26,96.418-.426,17.9.692,37.78,1.171,58.551,1.5q-30.1.211-60.474.426c-58.746.436-110.644,1.863-165.1,3.264-.675.02-.131.2-.059.324-2.031.1-2.311.286-.578.408.84.069,2.216.1,3.62.1,1.081,0,2.177-.02,3.063-.066l242.305-1.312q-.839-103.312-1.674-206.2c0-.674.005-1.337.008-2.049-.046-29.434-.093-58.612-.136-87.9,0-5.2-.257-9.512-.58-9.563-.085.028-.167.3-.239.8q-.173-18.188-.344-36.388c0-.444-.008-.883-.01-1.279-5.189.048-9.551.207-12.188.421-24.789-.421-48.853-.827-72.541-1.23l24.688-.054q30.813-.168,61.244-.334.208,22.843.416,45.446.277,21.124.552,41.99.763,41.685,1.5,82.135c1.176,53.827,2.693,105.658,4.508,154.641a5.107,5.107,0,0,0,.213,1.779c.054,0,.108-.286.157-.886a49.594,49.594,0,0,0,.072-5.88q-2.083-75.994-3.42-155.144-.555-39.572-1.119-79.849-.2-20.148-.4-40.469-.146-22.874-.3-45.936-17.357.073-34.925.143c-46.951-1.695-106.29-1.447-159.385-1.784-.385,0-.765-.005-1.142-.005m190.5,343.081-37.955-.3c12.6-.049,25.164-.1,37.51-.143-.18-44.971-.357-89.452-.534-133.882q.389,21.775.783,43.524c.077,14.848.154,29.942.231,45.1-.013,15.226-.026,30.516-.036,45.7m-326.236-1.85-.67.026c.087,1.447.208,2.256.331,2.256.062,0,.126-.2.182-.62.062-.393.116-.965.157-1.661" transform="translate(-450.633 -137.401)" fill="#c5e3db"/>
        <path id="Pfad_2325" data-name="Pfad 2325" d="M456.437,144.4q.065,15.347.133,30.918c.166,28.44.4,56.705,1.19,82.612a9.923,9.923,0,0,0,.258,2.9c.028,0,.059-.081.089-.252a43.725,43.725,0,0,0,.169-5.806q-.594-29.292-.828-59.043-.119-25.144-.24-50.563c68.646.331,138.352.665,207.282,1,34.9.013,69.892.025,104.605.041l.018.031.01.025.01,2.432q.027,6.371.051,12.729.069,12.715.138,25.367.23,25.293.457,50.271c.391,33.271.97,66.012,1.808,97.934a4.817,4.817,0,0,0,.189,1.714c.02,0,.043-.051.064-.158.087-.845.133-2.77.1-4.084q-1.218-47.458-1.777-96.744-.222-24.613-.447-49.57-.1-20.06-.2-40.363l-47.112-.028q-28.636-.122-57.5-.247c-36.883-.255-72.955-.5-108.885-.749q-26.95-.141-53.882-.285l-45.7-.079" transform="translate(-441.614 -128.166)" fill="#c5e3db"/>
        <path id="Pfad_2326" data-name="Pfad 2326" d="M537.063,144.035q-31.62,0-63.429.3a13.153,13.153,0,0,0-3.233.214,14.563,14.563,0,0,0,3.185.2h.276c30.764-.143,61.385-.283,92.152-.283,30.6,0,61.352.14,92.54.553,16.519.222,32.8.362,49.206.387l24.74-.053,12.524-.1,1.576-.018.743-.008.123-.008.513-.038,1.106-.084.033.356.066.723.036.379.015.2.018.675q.069,4.3.141,8.533.138,8.476.278,16.763c.171,11.064.34,21.934.506,32.787.291,21.715.465,43.383.34,66.463a20.342,20.342,0,0,0,.156,3.427l.008,0a8.907,8.907,0,0,0,.207-2.554c.2-23.284.094-45.853-.118-68.357-.125-11.25-.248-22.49-.373-33.793q-.1-8.476-.2-17.012-.05-3.644-.1-7.3l-.092-2.2-2.641.1q-28.207.244-56.068.221-38.826,0-77.266-.232-38.5-.176-76.967-.232" transform="translate(-419.916 -128.734)" fill="#c5e3db"/>
        <path id="Pfad_2327" data-name="Pfad 2327" d="M578.884,138.026a32.206,32.206,0,0,0-6.1.328c-.138.2,2.12.372,5.506.4q13.515.057,27.271.109c-.028,18.12-.054,36.472-.082,54.8.084,16,.168,31.985.25,47.722.3,31.458.9,61.915,1.938,89.533a3.973,3.973,0,0,0,.179,1.436c.046,0,.089-.224.128-.662a45.611,45.611,0,0,0,.061-4.823c-1-27.269-1.476-57.151-1.678-87.908-.043-15.378-.087-30.974-.13-46.573.036-18.181.069-36.36.1-54.294q-13.73-.031-27.166-.066h-.283" transform="translate(-260.827 -138.026)" fill="#c5e3db"/>
        <path id="Pfad_2328" data-name="Pfad 2328" d="M778.687,143.559l-69.32.2h-.094c-2.97,0-5.2.145-5.169.316-.023.186,2.416.328,5.414.331l68.447-.125q.253,43.176.508,86.174c-.069,2.075-.1,4.474-.072,6.995.386,47.169.761,93.052,1.149,140.753q.084,23.926.164,47.472-.05,20.866-.1,41.549-23.843-.107-47.633-.209-26.536-.031-53.246-.066l-79.723.634q-2.911,0-5.833.005c-4.62,0-9.255-.01-13.878-.02s-9.258-.02-13.84-.02c-11.347,0-22.449.061-32.879.333-25.9.675-49.219,1.6-71.859,2.6l-.718.031-5.93.267c-1.509.064-1.655.181-.5.26.485.048,1.371.076,2.281.076.687,0,1.387-.015,1.931-.048l2.24-.084c.222-.01.444-.018.667-.026,23.935-.924,49.982-1.928,74.1-2.857,49.019-.061,97.188-.209,145.268-.833l52.273.863,26.062.407c7.475.064,15.024.125,22.717.188,0-1.271,0-2.567,0-3.868-.036-32.367-.074-64.749-.11-96.923-.064-32.688-.217-65.159-.634-97.18.128-30.76.222-61.485.013-92.128,0-4.393-.222-7.95-.493-7.95h0c-.271,0-.49,3.573-.49,7.963q-.054,23.189-.1,46.311c-.066-.359-.135-.545-.209-.545a.08.08,0,0,0-.059.041q-.172-40.4-.345-80.891" transform="translate(-447.245 -129.47)" fill="#c5e3db"/>
      </g>
    </g>
  </g>
</svg>
