<svg xmlns="http://www.w3.org/2000/svg" xmlns:xlink="http://www.w3.org/1999/xlink" width="526" height="492.609" viewBox="0 0 526 492.609">
  <defs>
    <clipPath id="clip-path">
      <rect id="Rectangle_3320" data-name="Rectangle 3320" width="293.144" height="268.626" fill="#a18acf"/>
    </clipPath>
    <clipPath id="clip-path-3">
      <rect id="Rectangle_3322" data-name="Rectangle 3322" width="293.144" height="268.625" fill="#a18acf"/>
    </clipPath>
    <clipPath id="clip-path-4">
      <rect id="Rectangle_3323" data-name="Rectangle 3323" width="293.144" height="268.623" fill="#a18acf"/>
    </clipPath>
  </defs>
  <g id="lerneinheit-01_slide-5-image" transform="translate(-5936.511 -3106.621)">
    <g id="Group_5393" data-name="Group 5393" transform="translate(6169.367 3209.248)" style="mix-blend-mode: multiply;isolation: isolate">
      <g id="Group_5392" data-name="Group 5392" clip-path="url(#clip-path)">
        <g id="Group_5391" data-name="Group 5391" transform="translate(22.068 17.165)">
          <path id="Path_5124" data-name="Path 5124" d="M73.729,147.459a124.5,124.5,0,1,0-124.5-124.5,124.5,124.5,0,0,0,124.5,124.5" transform="translate(50.775 101.55)" fill="#a18acf"/>
        </g>
      </g>
    </g>
    <g id="Group_5402" data-name="Group 5402" transform="translate(5936.511 3209.248)" style="mix-blend-mode: multiply;isolation: isolate">
      <g id="Group_5401" data-name="Group 5401" clip-path="url(#clip-path)">
        <g id="Group_5400" data-name="Group 5400" transform="translate(22.068 17.165)">
          <path id="Path_5131" data-name="Path 5131" d="M73.729,147.459a124.5,124.5,0,1,1,124.5-124.5,124.5,124.5,0,0,1-124.5,124.5" transform="translate(50.775 101.55)" fill="#a18acf"/>
        </g>
      </g>
    </g>
    <g id="Group_5411" data-name="Group 5411" transform="translate(6052.506 3110.793)" style="mix-blend-mode: multiply;isolation: isolate">
      <g id="Group_5410" data-name="Group 5410" clip-path="url(#clip-path-3)">
        <g id="Group_5409" data-name="Group 5409" transform="translate(22.068 2.452)">
          <path id="Path_5138" data-name="Path 5138" d="M73.729,0a124.5,124.5,0,1,1-124.5,124.5A124.5,124.5,0,0,1,73.729,0" transform="translate(50.775)" fill="#a18acf"/>
        </g>
      </g>
    </g>
    <g id="Group_5421" data-name="Group 5421" transform="translate(6052.506 3326.432)" style="mix-blend-mode: multiply;isolation: isolate">
      <g id="Group_5420" data-name="Group 5420" clip-path="url(#clip-path-4)">
        <g id="Group_5419" data-name="Group 5419" transform="translate(22.068 17.163)">
          <path id="Path_5145" data-name="Path 5145" d="M73.729,147.459a124.5,124.5,0,1,0-124.5-124.5,124.5,124.5,0,0,0,124.5,124.5" transform="translate(50.775 101.55)" fill="#a18acf"/>
        </g>
      </g>
    </g>
    <g id="Group_5428" data-name="Group 5428" transform="translate(6115.991 3268.841)">
      <path id="Path_5152" data-name="Path 5152" d="M49.287,98.576a83.23,83.23,0,1,0-83.23-83.231,83.23,83.23,0,0,0,83.23,83.231" transform="translate(33.943 67.885)" fill="#5fe2e3"/>
    </g>
    <g id="Group_5430" data-name="Group 5430" transform="translate(6131.683 3399.279)">
      <path id="Path_5154" data-name="Path 5154" d="M16.986,15.107c.01,0-.015-.029-.078-.071-.248-.155-.8-.495-1.361-.8a73.776,73.776,0,0,1-14.365-10A75.99,75.99,0,0,1-10.853-9.292a7.684,7.684,0,0,0-.825-1.108c-.008-.008-.015-.01-.017-.008a5.13,5.13,0,0,0,.52.871A76.128,76.128,0,0,0,1.332,4.543a74.885,74.885,0,0,0,15,10.284,2.761,2.761,0,0,0,.649.277" transform="translate(11.696 10.408)" fill="#f8ac01"/>
    </g>
    <path id="Path_5159" data-name="Path 5159" d="M0,291.715H499.734V-200.894H0Z" transform="translate(5950.257 3307.515)" fill="none"/>
    <path id="Path_5160" data-name="Path 5160" d="M8.972-6.223a8.687,8.687,0,0,1,1.4-.116,9.048,9.048,0,0,1,1.411.116V.6a9.124,9.124,0,0,1-2.1.494,16.937,16.937,0,0,1-1.9.125A7.7,7.7,0,0,1,4.8.684,5.757,5.757,0,0,1,2.67-.8,6.279,6.279,0,0,1,1.4-3.074a9.244,9.244,0,0,1-.429-2.86A8.961,8.961,0,0,1,1.412-8.8,6.686,6.686,0,0,1,2.7-11.093a5.8,5.8,0,0,1,2.068-1.5,6.855,6.855,0,0,1,2.791-.537,12.107,12.107,0,0,1,1.729.116,6.819,6.819,0,0,1,1.671.483,4.253,4.253,0,0,1-.232,1.13q-.193.551-.429,1.111a8.578,8.578,0,0,0-1.187-.337,6.883,6.883,0,0,0-1.237-.1A3.482,3.482,0,0,0,5.02-9.518a5.532,5.532,0,0,0-1,3.584,5.4,5.4,0,0,0,.985,3.542,3.578,3.578,0,0,0,2.9,1.169A4.05,4.05,0,0,0,8.5-1.261q.261-.039.473-.077ZM16.7-3.17a2.1,2.1,0,0,0,.812,1.685,3.267,3.267,0,0,0,1.932.522,7.448,7.448,0,0,0,1.343-.126,7.611,7.611,0,0,0,1.3-.357,4.487,4.487,0,0,1,.367.927A4.747,4.747,0,0,1,22.637.636a9.414,9.414,0,0,1-3.4.58,6.594,6.594,0,0,1-2.4-.386A4.235,4.235,0,0,1,15.217-.244a4.3,4.3,0,0,1-.927-1.633A6.824,6.824,0,0,1,14-3.943,6.746,6.746,0,0,1,14.3-6.011a4.831,4.831,0,0,1,.918-1.681,4.342,4.342,0,0,1,1.5-1.13,4.951,4.951,0,0,1,2.1-.415,4.456,4.456,0,0,1,1.855.367,4.089,4.089,0,0,1,1.382,1,4.233,4.233,0,0,1,.859,1.517,5.98,5.98,0,0,1,.29,1.884q0,.367-.029.725t-.068.57Zm3.922-1.913a2.434,2.434,0,0,0-.512-1.5,1.625,1.625,0,0,0-1.324-.57,1.906,1.906,0,0,0-1.469.537,2.542,2.542,0,0,0-.6,1.526Zm5.02-3.922a5.25,5.25,0,0,1,.537-.087,5.655,5.655,0,0,1,.6-.029,5.116,5.116,0,0,1,.58.029q.251.029.522.087a1.112,1.112,0,0,1,.107.28q.048.184.087.386t.068.4q.029.193.048.328a4.568,4.568,0,0,1,.464-.58,3.34,3.34,0,0,1,.628-.522,3.406,3.406,0,0,1,.8-.377,3.167,3.167,0,0,1,.985-.145,3.328,3.328,0,0,1,2.56.927,4.187,4.187,0,0,1,.859,2.918V.984a8.334,8.334,0,0,1-1.363.116A8.334,8.334,0,0,1,31.753.984V-4.658a3.286,3.286,0,0,0-.322-1.6,1.17,1.17,0,0,0-1.111-.56,2.522,2.522,0,0,0-.676.1,1.418,1.418,0,0,0-.628.377,2.026,2.026,0,0,0-.454.783,4.1,4.1,0,0,0-.174,1.314V.984a8.334,8.334,0,0,1-1.372.116A8.334,8.334,0,0,1,25.643.984Zm13.8,5.835a2.1,2.1,0,0,0,.812,1.685,3.267,3.267,0,0,0,1.932.522,7.448,7.448,0,0,0,1.343-.126,7.611,7.611,0,0,0,1.3-.357,4.487,4.487,0,0,1,.367.927A4.747,4.747,0,0,1,45.375.64a9.414,9.414,0,0,1-3.4.58A6.594,6.594,0,0,1,39.588.834,4.235,4.235,0,0,1,37.965-.24a4.3,4.3,0,0,1-.927-1.633,6.824,6.824,0,0,1-.3-2.068,6.746,6.746,0,0,1,.309-2.068,4.831,4.831,0,0,1,.918-1.681,4.342,4.342,0,0,1,1.5-1.13,4.951,4.951,0,0,1,2.1-.415,4.456,4.456,0,0,1,1.855.367,4.089,4.089,0,0,1,1.382,1,4.233,4.233,0,0,1,.859,1.517,5.98,5.98,0,0,1,.29,1.884q0,.367-.029.725t-.068.57Zm3.922-1.913a2.434,2.434,0,0,0-.512-1.5,1.625,1.625,0,0,0-1.324-.57,1.906,1.906,0,0,0-1.469.537,2.542,2.542,0,0,0-.6,1.526ZM48.66-6.919H47.4l-.1-.386,3.613-4.616h.444V-9H53.7a4.667,4.667,0,0,1,.077.522Q53.8-8.25,53.8-8q0,.271-.019.522a5.262,5.262,0,0,1-.077.56H51.365v3.922a3.918,3.918,0,0,0,.1.966,1.433,1.433,0,0,0,.28.58.922.922,0,0,0,.454.29,2.335,2.335,0,0,0,.638.077,3.349,3.349,0,0,0,.57-.048l.493-.087a3.788,3.788,0,0,1,.193.763,4.929,4.929,0,0,1,.058.705q0,.215-.01.357t-.029.28a7.865,7.865,0,0,1-1.836.215A3.929,3.929,0,0,1,49.59.283a3.411,3.411,0,0,1-.927-2.676Zm7.944,0h-1.3a4.358,4.358,0,0,1-.087-.537,5.175,5.175,0,0,1-.029-.531,4.54,4.54,0,0,1,.116-1.024h3.98v10a8.223,8.223,0,0,1-1.353.116A8.115,8.115,0,0,1,56.6.984ZM56.2-10.687a7.438,7.438,0,0,1-.116-1.295,7.666,7.666,0,0,1,.116-1.295q.328-.058.705-.087t.686-.029q.328,0,.715.029t.715.087a5.713,5.713,0,0,1,.077.644q.019.322.019.644t-.019.638a5.7,5.7,0,0,1-.077.657,5.763,5.763,0,0,1-.705.077q-.377.019-.705.019-.309,0-.7-.019a5.788,5.788,0,0,1-.717-.071Zm8,7.323A3.826,3.826,0,0,1,62.5-4.281,2.48,2.48,0,0,1,61.9-6.106a2.766,2.766,0,0,1,1.053-2.3,4.509,4.509,0,0,1,2.869-.831,8.2,8.2,0,0,1,1.488.135,9.5,9.5,0,0,1,1.488.406A5.273,5.273,0,0,1,68.6-7.652a5.008,5.008,0,0,1-.367.947,7.635,7.635,0,0,0-1.024-.338,4.69,4.69,0,0,0-1.181-.145,2.137,2.137,0,0,0-1.024.2.686.686,0,0,0-.367.644.666.666,0,0,0,.261.6,3.048,3.048,0,0,0,.744.328l1.1.328a5.4,5.4,0,0,1,.979.38,2.693,2.693,0,0,1,.744.551,2.306,2.306,0,0,1,.483.812,3.5,3.5,0,0,1,.174,1.181,3.017,3.017,0,0,1-.3,1.333,3.078,3.078,0,0,1-.87,1.073,4.31,4.31,0,0,1-1.382.715,5.988,5.988,0,0,1-1.836.261q-.464,0-.85-.029a6.694,6.694,0,0,1-.745-.1q-.357-.069-.705-.165T61.686.675a5.556,5.556,0,0,1,.184-1.053,6.619,6.619,0,0,1,.379-1.034,8.021,8.021,0,0,0,1.208.377,5.508,5.508,0,0,0,1.188.126,3.954,3.954,0,0,0,.589-.048,2.16,2.16,0,0,0,.589-.174,1.4,1.4,0,0,0,.454-.328A.761.761,0,0,0,66.46-2a.768.768,0,0,0-.28-.667,2.7,2.7,0,0,0-.783-.357ZM78.127-1.378a3.972,3.972,0,0,1,.386.9A4.2,4.2,0,0,1,78.672.733a5.984,5.984,0,0,1-1.449.4,11.057,11.057,0,0,1-1.411.087,5.529,5.529,0,0,1-2.186-.4A4.193,4.193,0,0,1,72.089-.272a4.644,4.644,0,0,1-.918-1.652A6.719,6.719,0,0,1,70.862-4a6.763,6.763,0,0,1,.3-2.048,4.735,4.735,0,0,1,.911-1.662,4.221,4.221,0,0,1,1.517-1.121,5.119,5.119,0,0,1,2.106-.406q.429,0,.783.019a5.724,5.724,0,0,1,.686.077,6.058,6.058,0,0,1,.657.155q.328.1.734.251a4.875,4.875,0,0,1-.116,1,4.347,4.347,0,0,1-.367,1.053,6.38,6.38,0,0,0-1.014-.261,6.531,6.531,0,0,0-1-.068,2.147,2.147,0,0,0-1.807.783A3.567,3.567,0,0,0,73.644-4a3.3,3.3,0,0,0,.657,2.28,2.3,2.3,0,0,0,1.778.715q.29,0,.537-.01a3.8,3.8,0,0,0,.473-.048,3.374,3.374,0,0,0,.473-.116Q77.8-1.257,78.127-1.378Zm2.705-11.767a5.712,5.712,0,0,1,.676-.077q.348-.019.676-.019t.676.019a6.382,6.382,0,0,1,.7.077v5.314q.135-.174.357-.415a3.113,3.113,0,0,1,.551-.464,3.235,3.235,0,0,1,.792-.377,3.357,3.357,0,0,1,1.063-.155,3.271,3.271,0,0,1,2.522.927A4.187,4.187,0,0,1,89.7-5.4V1a6.382,6.382,0,0,1-.7.077q-.349.019-.671.019t-.681-.019a6.381,6.381,0,0,1-.7-.077V-4.658a3.2,3.2,0,0,0-.328-1.6,1.193,1.193,0,0,0-1.121-.56,2.522,2.522,0,0,0-.676.1,1.418,1.418,0,0,0-.628.377,2.119,2.119,0,0,0-.464.783,3.9,3.9,0,0,0-.184,1.314v5.26a6.382,6.382,0,0,1-.7.073q-.348.019-.676.019t-.664-.019A6.389,6.389,0,0,1,80.832,1ZM94.648-3.17a2.1,2.1,0,0,0,.812,1.685,3.267,3.267,0,0,0,1.932.522,7.448,7.448,0,0,0,1.343-.126,7.61,7.61,0,0,0,1.3-.362,4.489,4.489,0,0,1,.367.927,4.748,4.748,0,0,1,.174,1.159,9.414,9.414,0,0,1-3.4.58A6.594,6.594,0,0,1,94.788.829,4.235,4.235,0,0,1,93.165-.244a4.3,4.3,0,0,1-.927-1.633,6.825,6.825,0,0,1-.3-2.068,6.745,6.745,0,0,1,.309-2.068,4.831,4.831,0,0,1,.918-1.681,4.342,4.342,0,0,1,1.5-1.13,4.951,4.951,0,0,1,2.1-.415,4.456,4.456,0,0,1,1.855.367,4.088,4.088,0,0,1,1.382,1,4.232,4.232,0,0,1,.859,1.517,5.98,5.98,0,0,1,.29,1.884q0,.367-.029.725t-.068.57ZM98.57-5.083a2.434,2.434,0,0,0-.512-1.5,1.625,1.625,0,0,0-1.324-.57,1.906,1.906,0,0,0-1.469.537,2.542,2.542,0,0,0-.6,1.531ZM.18,9.634Q.508,9.6.931,9.557t.751-.039a10.949,10.949,0,0,1,1.546.116L6.267,20.59,9.339,9.634a6.354,6.354,0,0,1,.739-.077q.352-.015.725-.019.348,0,.705.019t.744.077L7.774,23.527q-.406.058-.783.087t-.8.029q-.386,0-.751-.029t-.814-.087Zm15.014,9.739a2.1,2.1,0,0,0,.812,1.681,3.267,3.267,0,0,0,1.932.522,7.448,7.448,0,0,0,1.343-.126,7.611,7.611,0,0,0,1.3-.357,4.487,4.487,0,0,1,.367.927,4.747,4.747,0,0,1,.174,1.159,9.415,9.415,0,0,1-3.4.58,6.594,6.594,0,0,1-2.386-.386A4.235,4.235,0,0,1,13.715,22.3a4.3,4.3,0,0,1-.927-1.633,6.824,6.824,0,0,1-.3-2.068,6.746,6.746,0,0,1,.309-2.068,4.831,4.831,0,0,1,.918-1.681,4.342,4.342,0,0,1,1.5-1.13,4.951,4.951,0,0,1,2.1-.415,4.456,4.456,0,0,1,1.855.367,4.089,4.089,0,0,1,1.382,1,4.233,4.233,0,0,1,.859,1.517,5.98,5.98,0,0,1,.29,1.884q0,.367-.029.725t-.068.57Zm3.922-1.913a2.434,2.434,0,0,0-.512-1.5,1.625,1.625,0,0,0-1.324-.57,1.906,1.906,0,0,0-1.469.537,2.542,2.542,0,0,0-.6,1.526Zm5.024-3.922q.29-.058.551-.087a5.182,5.182,0,0,1,.57-.029,4.167,4.167,0,0,1,.57.039q.28.039.551.1a1.112,1.112,0,0,1,.107.28q.048.184.087.386t.068.406l.048.338a4.979,4.979,0,0,1,1.043-1.073,2.469,2.469,0,0,1,1.546-.473q.193,0,.444.019a1.672,1.672,0,0,1,.367.058,3.757,3.757,0,0,1,.058.444q.019.251.019.522,0,.328-.029.715a5.163,5.163,0,0,1-.107.734,2.657,2.657,0,0,0-.473-.039h-.322a4.509,4.509,0,0,0-.734.068,1.69,1.69,0,0,0-.773.357,2.115,2.115,0,0,0-.609.87,4.35,4.35,0,0,0-.242,1.623v4.753a6.381,6.381,0,0,1-.7.077q-.348.019-.676.019t-.667-.019q-.338-.019-.705-.077Zm12.83,5.41q-.232-.039-.5-.068a4.584,4.584,0,0,0-.483-.029,2.849,2.849,0,0,0-1.5.338,1.181,1.181,0,0,0-.551,1.092,1.227,1.227,0,0,0,.215.773,1.269,1.269,0,0,0,.512.4,2.1,2.1,0,0,0,.638.155q.338.029.589.029a3.52,3.52,0,0,0,.58-.048q.29-.048.5-.087Zm0-1.99a1.6,1.6,0,0,0-.155-.751,1.156,1.156,0,0,0-.429-.454,1.768,1.768,0,0,0-.667-.222,6.1,6.1,0,0,0-.879-.058,6.838,6.838,0,0,0-2.222.406,5.227,5.227,0,0,1-.406-.947,3.675,3.675,0,0,1-.129-1.065,10.26,10.26,0,0,1,1.7-.429,10.122,10.122,0,0,1,1.584-.135,4.682,4.682,0,0,1,3.14.966,3.856,3.856,0,0,1,1.13,3.092v5.8A16.114,16.114,0,0,1,38,23.561a11.189,11.189,0,0,1-2.183.193,8.731,8.731,0,0,1-1.807-.174A3.874,3.874,0,0,1,32.6,23a2.73,2.73,0,0,1-.908-1.043,3.476,3.476,0,0,1-.322-1.565,2.862,2.862,0,0,1,.4-1.555,3.055,3.055,0,0,1,1.024-1,4.531,4.531,0,0,1,1.4-.537,7.418,7.418,0,0,1,1.546-.164q.56,0,1.237.058Zm5.367-3.42a5.251,5.251,0,0,1,.537-.087,5.655,5.655,0,0,1,.6-.029,5.116,5.116,0,0,1,.58.029q.251.029.522.087a1.112,1.112,0,0,1,.107.28q.048.184.087.386t.068.4q.029.193.048.328a4.568,4.568,0,0,1,.464-.58,3.34,3.34,0,0,1,.628-.522,3.406,3.406,0,0,1,.8-.377,3.167,3.167,0,0,1,.985-.145,3.328,3.328,0,0,1,2.56.927,4.187,4.187,0,0,1,.859,2.918v6.376a8.176,8.176,0,0,1-2.744,0V17.885a3.286,3.286,0,0,0-.322-1.6,1.17,1.17,0,0,0-1.111-.56,2.522,2.522,0,0,0-.676.1,1.418,1.418,0,0,0-.628.377,2.026,2.026,0,0,0-.454.783,4.1,4.1,0,0,0-.174,1.314v5.236a8.176,8.176,0,0,1-2.744,0ZM53.875,9.4a8.334,8.334,0,0,1,1.372-.116A8.223,8.223,0,0,1,56.6,9.4V19.546a5.541,5.541,0,0,0,.068.966,1.427,1.427,0,0,0,.215.57.741.741,0,0,0,.377.28,1.857,1.857,0,0,0,.58.077,3.248,3.248,0,0,0,.338-.019,3.182,3.182,0,0,0,.357-.058,5.952,5.952,0,0,1,.215,1.546v.28a1.166,1.166,0,0,1-.039.28,3.585,3.585,0,0,1-.744.135q-.435.039-.8.039a3.4,3.4,0,0,1-2.386-.821,3.476,3.476,0,0,1-.9-2.676Zm11.593,9.545q-.232-.039-.5-.068a4.584,4.584,0,0,0-.483-.029,2.849,2.849,0,0,0-1.5.338,1.181,1.181,0,0,0-.551,1.092,1.227,1.227,0,0,0,.215.773,1.269,1.269,0,0,0,.512.4,2.1,2.1,0,0,0,.638.155q.338.029.589.029a3.52,3.52,0,0,0,.58-.048q.29-.048.5-.087Zm0-1.99a1.6,1.6,0,0,0-.155-.751,1.156,1.156,0,0,0-.429-.454,1.768,1.768,0,0,0-.667-.222,6.1,6.1,0,0,0-.879-.058,6.838,6.838,0,0,0-2.222.406,5.227,5.227,0,0,1-.406-.947,3.676,3.676,0,0,1-.135-1.063,10.261,10.261,0,0,1,1.7-.429A10.122,10.122,0,0,1,63.86,13.3a4.682,4.682,0,0,1,3.14.966,3.856,3.856,0,0,1,1.13,3.092v5.8a16.114,16.114,0,0,1-1.642.406,11.189,11.189,0,0,1-2.183.193,8.731,8.731,0,0,1-1.807-.174A3.874,3.874,0,0,1,61.088,23a2.73,2.73,0,0,1-.908-1.043,3.476,3.476,0,0,1-.322-1.565,2.862,2.862,0,0,1,.4-1.555,3.055,3.055,0,0,1,1.028-1,4.531,4.531,0,0,1,1.4-.537,7.418,7.418,0,0,1,1.546-.164q.56,0,1.237.058Zm10.975,4.908a3.938,3.938,0,0,1,2.589.783,2.971,2.971,0,0,1,.406,3.594,3.674,3.674,0,0,1-1.159,1.13,5.929,5.929,0,0,1-1.739.715,8.9,8.9,0,0,1-2.164.251,9.075,9.075,0,0,1-1.971-.184,4.145,4.145,0,0,1-1.324-.512,1.917,1.917,0,0,1-.734-.812,2.512,2.512,0,0,1-.222-1.063,2.337,2.337,0,0,1,.415-1.43,3.871,3.871,0,0,1,1.111-.985,2.192,2.192,0,0,1-.705-.667,1.811,1.811,0,0,1-.261-1.014,2.12,2.12,0,0,1,.309-1.2,3.517,3.517,0,0,1,.915-.889A3.373,3.373,0,0,1,70.866,18.4a3.26,3.26,0,0,1-.367-1.546,3.388,3.388,0,0,1,.29-1.4,3.173,3.173,0,0,1,.841-1.121,4.033,4.033,0,0,1,1.343-.744,5.475,5.475,0,0,1,1.778-.271,5.1,5.1,0,0,1,1.778.3,4.394,4.394,0,0,1,1.353.763,2.308,2.308,0,0,1,.908-.725,3.669,3.669,0,0,1,1.468-.242q.039.251.068.493a4.3,4.3,0,0,1,.029.512q0,.309-.019.618a5.725,5.725,0,0,1-.077.638H78.687a2.425,2.425,0,0,1,.251,1.181,3.489,3.489,0,0,1-.28,1.4,3.033,3.033,0,0,1-.821,1.111,4.033,4.033,0,0,1-1.324.734,5.392,5.392,0,0,1-1.768.271,5.825,5.825,0,0,1-1.488-.174.911.911,0,0,0-.406.454,1.493,1.493,0,0,0-.077.454.662.662,0,0,0,.2.5,1.3,1.3,0,0,0,.821.215Zm-2.469,2.01a1.655,1.655,0,0,0-.705.1,1.2,1.2,0,0,0-.444.3,1.074,1.074,0,0,0-.232.406,1.489,1.489,0,0,0-.068.435,1,1,0,0,0,.551,1,3.494,3.494,0,0,0,1.478.261,4.264,4.264,0,0,0,1.961-.386,1.166,1.166,0,0,0,.744-1.043,1.365,1.365,0,0,0-.048-.367.764.764,0,0,0-.184-.322,1.029,1.029,0,0,0-.377-.242,1.78,1.78,0,0,0-.644-.1Zm.792-5.275a1.385,1.385,0,0,0,1.169-.464,2.04,2.04,0,0,0,.357-1.275,2.085,2.085,0,0,0-.357-1.288,1.371,1.371,0,0,0-1.169-.473,1.422,1.422,0,0,0-1.2.473,2.045,2.045,0,0,0-.367,1.288,2,2,0,0,0,.367,1.275,1.437,1.437,0,0,0,1.2.464Zm7.111-5.062a8.175,8.175,0,0,1,2.744,0v5.294a5.613,5.613,0,0,0,.126,1.3,1.909,1.909,0,0,0,.386.812,1.426,1.426,0,0,0,.644.429,2.947,2.947,0,0,0,.908.126,4.514,4.514,0,0,0,1.2-.135V13.541a8.223,8.223,0,0,1,1.353-.116,8.334,8.334,0,0,1,1.372.116v9.6a13.1,13.1,0,0,1-1.633.415,10.767,10.767,0,0,1-2.116.2,11.272,11.272,0,0,1-1.894-.155,3.708,3.708,0,0,1-1.594-.657,3.391,3.391,0,0,1-1.092-1.469,6.749,6.749,0,0,1-.406-2.57Zm11.5,0a5.251,5.251,0,0,1,.537-.087,5.655,5.655,0,0,1,.6-.029,5.116,5.116,0,0,1,.58.029q.251.029.522.087a1.112,1.112,0,0,1,.107.28q.048.184.087.386t.068.4q.029.193.048.328a4.569,4.569,0,0,1,.464-.58,3.339,3.339,0,0,1,.628-.522,3.406,3.406,0,0,1,.8-.377,3.167,3.167,0,0,1,.985-.145,3.328,3.328,0,0,1,2.56.927,4.187,4.187,0,0,1,.859,2.918v6.376a8.175,8.175,0,0,1-2.744,0V17.885a3.286,3.286,0,0,0-.322-1.6,1.17,1.17,0,0,0-1.111-.56,2.522,2.522,0,0,0-.676.1,1.418,1.418,0,0,0-.628.377,2.026,2.026,0,0,0-.454.783,4.105,4.105,0,0,0-.174,1.314v5.236a8.175,8.175,0,0,1-2.744,0Zm17.216,8.328a3.937,3.937,0,0,1,2.589.783,2.971,2.971,0,0,1,.406,3.594,3.674,3.674,0,0,1-1.159,1.13,5.929,5.929,0,0,1-1.739.715,8.9,8.9,0,0,1-2.164.251,9.075,9.075,0,0,1-1.971-.184,4.145,4.145,0,0,1-1.324-.512,1.917,1.917,0,0,1-.734-.812,2.512,2.512,0,0,1-.222-1.063,2.337,2.337,0,0,1,.415-1.43,3.871,3.871,0,0,1,1.111-.985,2.192,2.192,0,0,1-.705-.667,1.811,1.811,0,0,1-.261-1.014,2.12,2.12,0,0,1,.309-1.2,3.517,3.517,0,0,1,.908-.889,3.373,3.373,0,0,1-1.043-1.181,3.26,3.26,0,0,1-.367-1.546,3.388,3.388,0,0,1,.29-1.4,3.173,3.173,0,0,1,.841-1.121,4.033,4.033,0,0,1,1.343-.744,5.475,5.475,0,0,1,1.778-.271,5.1,5.1,0,0,1,1.778.3,4.394,4.394,0,0,1,1.353.763,2.308,2.308,0,0,1,.908-.725,3.669,3.669,0,0,1,1.469-.242q.039.251.068.493a4.3,4.3,0,0,1,.029.512q0,.309-.019.618a5.725,5.725,0,0,1-.077.638H112.83a2.425,2.425,0,0,1,.251,1.181,3.489,3.489,0,0,1-.28,1.4,3.033,3.033,0,0,1-.821,1.111,4.033,4.033,0,0,1-1.324.734,5.392,5.392,0,0,1-1.768.271A5.825,5.825,0,0,1,107.4,20.2a.911.911,0,0,0-.406.454,1.493,1.493,0,0,0-.077.454.662.662,0,0,0,.2.5,1.3,1.3,0,0,0,.821.215Zm-2.469,2.01a1.655,1.655,0,0,0-.705.1,1.2,1.2,0,0,0-.444.3,1.074,1.074,0,0,0-.232.406,1.489,1.489,0,0,0-.068.435,1,1,0,0,0,.551,1,3.494,3.494,0,0,0,1.478.261,4.264,4.264,0,0,0,1.961-.386,1.166,1.166,0,0,0,.744-1.043,1.365,1.365,0,0,0-.048-.367.764.764,0,0,0-.184-.322,1.03,1.03,0,0,0-.377-.242,1.78,1.78,0,0,0-.644-.1Zm.792-5.275a1.385,1.385,0,0,0,1.169-.464,2.04,2.04,0,0,0,.357-1.275,2.085,2.085,0,0,0-.357-1.288,1.371,1.371,0,0,0-1.169-.473,1.422,1.422,0,0,0-1.2.473,2.045,2.045,0,0,0-.367,1.288,2,2,0,0,0,.367,1.275,1.437,1.437,0,0,0,1.192.464Z" transform="translate(5980.493 3345.415)" fill="#fff"/>
    <path id="Path_5161" data-name="Path 5161" d="M1.253-12.918A7.116,7.116,0,0,1,1.967-13q.348-.019.715-.019.328,0,.676.019a7.116,7.116,0,0,1,.715.077v7.207a20.012,20.012,0,0,0,.09,2.019,4.3,4.3,0,0,0,.348,1.4,1.743,1.743,0,0,0,.734.812,2.531,2.531,0,0,0,1.227.261,2.469,2.469,0,0,0,1.214-.271,1.759,1.759,0,0,0,.725-.812,4.3,4.3,0,0,0,.348-1.4,20.013,20.013,0,0,0,.087-2.019v-7.207q.386-.058.734-.077t.676-.019q.348,0,.705.019a7.1,7.1,0,0,1,.725.077v7.816a13.287,13.287,0,0,1-.232,2.576,5.053,5.053,0,0,1-.831,2.007A3.921,3.921,0,0,1,9.02.76a6.214,6.214,0,0,1-2.551.447A6.214,6.214,0,0,1,3.919.752a3.921,3.921,0,0,1-1.6-1.281,5.053,5.053,0,0,1-.835-2,13.287,13.287,0,0,1-.232-2.576Zm12.787,3.9a5.25,5.25,0,0,1,.537-.087,5.655,5.655,0,0,1,.6-.029,5.116,5.116,0,0,1,.58.029q.251.029.522.087a1.112,1.112,0,0,1,.107.28q.048.184.087.386t.068.4q.029.193.048.328a3.168,3.168,0,0,1,.406-.58,2.956,2.956,0,0,1,.6-.522,3.262,3.262,0,0,1,.783-.377,3.075,3.075,0,0,1,.976-.145,2.828,2.828,0,0,1,2.995,1.778,3.847,3.847,0,0,1,1.092-1.246,2.888,2.888,0,0,1,1.787-.531,3.113,3.113,0,0,1,2.5.937,4.44,4.44,0,0,1,.805,2.927V.975a8.334,8.334,0,0,1-1.372.116A8.335,8.335,0,0,1,25.792.975V-4.668a3.913,3.913,0,0,0-.261-1.6,1.043,1.043,0,0,0-1.053-.56,2.22,2.22,0,0,0-.644.1,1.383,1.383,0,0,0-.58.357,1.905,1.905,0,0,0-.429.734,3.816,3.816,0,0,0-.164,1.227V.975a8.334,8.334,0,0,1-1.372.116A8.334,8.334,0,0,1,19.918.975V-4.668a3.913,3.913,0,0,0-.261-1.6,1.043,1.043,0,0,0-1.053-.56,2.319,2.319,0,0,0-.657.1,1.3,1.3,0,0,0-.589.377,1.993,1.993,0,0,0-.42.785,4.584,4.584,0,0,0-.155,1.314V.975a8.334,8.334,0,0,1-1.372.116A8.334,8.334,0,0,1,14.04.975ZM29.459-9a5.153,5.153,0,0,1,.841-.116q.4-.019.667-.019.386,0,.751.019a3.938,3.938,0,0,1,.7.1l1.61,7.381,1.855-7.381a6.927,6.927,0,0,1,1.314-.116q.5.019.831.039a3.517,3.517,0,0,1,.58.077l1.816,7.246L42-9.015q.328-.058.618-.087t.657-.029q.271,0,.644.019A5.555,5.555,0,0,1,44.763-9L41.656.975a6.441,6.441,0,0,1-.744.077q-.4.019-.667.019-.29,0-.644-.019a3.912,3.912,0,0,1-.686-.1L37.1-5.653,35.221.975a7.116,7.116,0,0,1-.763.077q-.4.019-.667.019t-.628-.019a3.912,3.912,0,0,1-.686-.1ZM47.9-3.18a2.1,2.1,0,0,0,.816,1.685,3.267,3.267,0,0,0,1.932.522A7.448,7.448,0,0,0,51.988-1.1a7.611,7.611,0,0,0,1.3-.357,4.487,4.487,0,0,1,.359.927A4.747,4.747,0,0,1,53.825.631a9.414,9.414,0,0,1-3.394.575A6.594,6.594,0,0,1,48.044.82,4.235,4.235,0,0,1,46.421-.253a4.3,4.3,0,0,1-.929-1.632,6.824,6.824,0,0,1-.3-2.068A6.746,6.746,0,0,1,45.5-6.02,4.831,4.831,0,0,1,46.419-7.7a4.342,4.342,0,0,1,1.5-1.13,4.951,4.951,0,0,1,2.1-.415,4.456,4.456,0,0,1,1.855.367,4.089,4.089,0,0,1,1.382,1,4.233,4.233,0,0,1,.859,1.517,5.98,5.98,0,0,1,.29,1.884q0,.367-.029.725t-.068.57Zm3.922-1.913a2.434,2.434,0,0,0-.512-1.5,1.625,1.625,0,0,0-1.324-.57,1.906,1.906,0,0,0-1.469.537,2.542,2.542,0,0,0-.6,1.526Zm4.425-8.057a8.334,8.334,0,0,1,1.372-.116,8.223,8.223,0,0,1,1.353.116V-3.006a5.54,5.54,0,0,0,.068.966,1.427,1.427,0,0,0,.215.57.741.741,0,0,0,.377.28,1.857,1.857,0,0,0,.58.077,3.248,3.248,0,0,0,.338-.019,3.182,3.182,0,0,0,.357-.058A5.952,5.952,0,0,1,61.118.356v.28a1.166,1.166,0,0,1-.039.28,3.585,3.585,0,0,1-.744.135q-.435.039-.8.039A3.4,3.4,0,0,1,57.147.269a3.476,3.476,0,0,1-.9-2.676ZM62.6-6.924H61.345l-.1-.386,3.613-4.616h.444v2.918h2.338a4.667,4.667,0,0,1,.077.522q.019.232.019.483,0,.271-.019.522a5.259,5.259,0,0,1-.077.56H65.306V-3a3.918,3.918,0,0,0,.1.966,1.433,1.433,0,0,0,.28.58.922.922,0,0,0,.454.29,2.335,2.335,0,0,0,.638.077,3.349,3.349,0,0,0,.57-.048l.493-.087a3.789,3.789,0,0,1,.193.763,4.929,4.929,0,0,1,.058.705q0,.215-.01.357t-.029.28a7.865,7.865,0,0,1-1.836.215A3.929,3.929,0,0,1,63.531.278,3.411,3.411,0,0,1,62.6-2.4ZM73.98-5.513A6,6,0,0,1,74.1-4.333a6.1,6.1,0,0,1-.116,1.2H69.055a6,6,0,0,1-.116-1.181,6.1,6.1,0,0,1,.116-1.2ZM1.987,15.615H.407a5.26,5.26,0,0,1-.077-.56Q.31,14.8.31,14.533q0-.251.019-.483a4.664,4.664,0,0,1,.077-.522h1.58v-.483a4.556,4.556,0,0,1,.28-1.657,3.267,3.267,0,0,1,.8-1.212,3.533,3.533,0,0,1,1.246-.751,4.676,4.676,0,0,1,1.594-.261,8.265,8.265,0,0,1,.976.048,5.447,5.447,0,0,1,.859.184,10.825,10.825,0,0,1-.126,1.15,5.286,5.286,0,0,1-.28,1.014q-.215-.039-.444-.087a3.156,3.156,0,0,0-.618-.048,1.787,1.787,0,0,0-1.1.322A1.742,1.742,0,0,0,4.711,13.1v.429H7.03a5.26,5.26,0,0,1,.077.56q.019.251.019.522,0,.251-.019.483a4.664,4.664,0,0,1-.077.522H4.711v7.9a8.223,8.223,0,0,1-1.353.116,8.334,8.334,0,0,1-1.372-.116Zm11.536,3.328q-.232-.039-.5-.068a4.585,4.585,0,0,0-.483-.029,2.849,2.849,0,0,0-1.5.338,1.181,1.181,0,0,0-.551,1.092,1.227,1.227,0,0,0,.215.773,1.269,1.269,0,0,0,.512.4,2.1,2.1,0,0,0,.638.155q.338.029.589.029a3.52,3.52,0,0,0,.58-.048q.29-.048.5-.087Zm0-1.99a1.6,1.6,0,0,0-.155-.751,1.156,1.156,0,0,0-.429-.454,1.768,1.768,0,0,0-.667-.222,6.1,6.1,0,0,0-.879-.058,6.838,6.838,0,0,0-2.222.406,5.227,5.227,0,0,1-.406-.947,3.676,3.676,0,0,1-.131-1.069,10.26,10.26,0,0,1,1.7-.429,10.121,10.121,0,0,1,1.584-.135,4.682,4.682,0,0,1,3.14.966,3.856,3.856,0,0,1,1.13,3.092v5.8a16.114,16.114,0,0,1-1.642.406,11.189,11.189,0,0,1-2.183.193,8.731,8.731,0,0,1-1.807-.174,3.874,3.874,0,0,1-1.411-.58,2.73,2.73,0,0,1-.908-1.043,3.476,3.476,0,0,1-.322-1.565,2.862,2.862,0,0,1,.4-1.555,3.055,3.055,0,0,1,1.024-1,4.531,4.531,0,0,1,1.4-.537,7.418,7.418,0,0,1,1.546-.164q.56,0,1.237.058ZM18.2,9.4a7.77,7.77,0,0,1,1.353-.116,8.1,8.1,0,0,1,1.372.116v14.12a8.1,8.1,0,0,1-1.372.116,7.77,7.77,0,0,1-1.353-.116Zm3.113,8.888,2.469-4.753a10.025,10.025,0,0,1,1.526-.116,8.684,8.684,0,0,1,1.43.116L24.188,18.15l2.976,5.367a10.545,10.545,0,0,1-1.526.116,9.418,9.418,0,0,1-1.43-.116Zm7.42-2.667H27.475l-.1-.386,3.613-4.616h.438v2.918h2.338a4.664,4.664,0,0,1,.077.522q.019.232.019.483,0,.271-.019.522a5.26,5.26,0,0,1-.077.56H31.43v3.922a3.918,3.918,0,0,0,.1.966,1.433,1.433,0,0,0,.28.58.922.922,0,0,0,.454.29,2.335,2.335,0,0,0,.638.077,3.348,3.348,0,0,0,.57-.048l.493-.087a3.788,3.788,0,0,1,.193.763,4.929,4.929,0,0,1,.058.705q0,.215-.01.357t-.029.28a7.865,7.865,0,0,1-1.836.215,3.929,3.929,0,0,1-2.684-.821,3.411,3.411,0,0,1-.927-2.676Zm11.11,8.135a5.212,5.212,0,0,1-2.116-.4,4.015,4.015,0,0,1-1.488-1.1,4.8,4.8,0,0,1-.889-1.652,6.763,6.763,0,0,1-.3-2.048,6.946,6.946,0,0,1,.3-2.067,4.78,4.78,0,0,1,.889-1.671,4.109,4.109,0,0,1,1.488-1.111,5.1,5.1,0,0,1,2.116-.406,5.171,5.171,0,0,1,2.125.406,4.187,4.187,0,0,1,1.5,1.111,4.578,4.578,0,0,1,.889,1.671,7.161,7.161,0,0,1,.29,2.068,6.966,6.966,0,0,1-.29,2.048,4.6,4.6,0,0,1-.889,1.652,4.086,4.086,0,0,1-1.5,1.1,5.281,5.281,0,0,1-2.128.392Zm0-2.087a1.665,1.665,0,0,0,1.555-.8,4.593,4.593,0,0,0,.473-2.309,4.593,4.593,0,0,0-.473-2.309,1.665,1.665,0,0,0-1.555-.8,1.647,1.647,0,0,0-1.536.8,4.593,4.593,0,0,0-.473,2.309,4.593,4.593,0,0,0,.473,2.309,1.647,1.647,0,0,0,1.534.8Zm6.724-8.139q.29-.058.551-.087a5.182,5.182,0,0,1,.57-.029,4.167,4.167,0,0,1,.57.039q.28.039.551.1a1.112,1.112,0,0,1,.107.28q.048.184.087.386t.068.406l.048.338a4.979,4.979,0,0,1,1.043-1.073,2.469,2.469,0,0,1,1.546-.473q.193,0,.444.019a1.671,1.671,0,0,1,.367.058,3.756,3.756,0,0,1,.058.444q.019.251.019.522,0,.328-.029.715a5.163,5.163,0,0,1-.107.734,2.657,2.657,0,0,0-.473-.039h-.322a4.509,4.509,0,0,0-.734.068,1.69,1.69,0,0,0-.773.357,2.115,2.115,0,0,0-.609.87,4.35,4.35,0,0,0-.242,1.623v4.753a6.381,6.381,0,0,1-.7.077q-.348.019-.676.019t-.667-.019q-.338-.019-.705-.077Zm9.41,5.835a2.1,2.1,0,0,0,.809,1.685,3.267,3.267,0,0,0,1.932.522,7.448,7.448,0,0,0,1.343-.126,7.611,7.611,0,0,0,1.3-.357,4.487,4.487,0,0,1,.367.927,4.747,4.747,0,0,1,.174,1.159,9.415,9.415,0,0,1-3.4.58,6.594,6.594,0,0,1-2.386-.386A4.235,4.235,0,0,1,54.5,22.294a4.3,4.3,0,0,1-.927-1.633,6.824,6.824,0,0,1-.3-2.068,6.746,6.746,0,0,1,.309-2.068,4.831,4.831,0,0,1,.918-1.681,4.342,4.342,0,0,1,1.5-1.13,4.951,4.951,0,0,1,2.1-.415,4.456,4.456,0,0,1,1.855.367,4.089,4.089,0,0,1,1.382,1,4.233,4.233,0,0,1,.859,1.517,5.98,5.98,0,0,1,.29,1.884q0,.367-.029.725t-.068.57ZM59.9,17.45a2.434,2.434,0,0,0-.512-1.5,1.625,1.625,0,0,0-1.324-.57,1.906,1.906,0,0,0-1.468.537,2.542,2.542,0,0,0-.6,1.526Zm4.5-3.922a5.25,5.25,0,0,1,.537-.087,5.655,5.655,0,0,1,.6-.029,5.115,5.115,0,0,1,.58.029q.251.029.522.087a1.112,1.112,0,0,1,.107.28q.048.184.087.386t.068.4q.029.193.048.328a4.569,4.569,0,0,1,.464-.58,3.339,3.339,0,0,1,.628-.522,3.406,3.406,0,0,1,.8-.377,3.167,3.167,0,0,1,.985-.145,3.328,3.328,0,0,1,2.56.927,4.187,4.187,0,0,1,.859,2.918v6.376a8.176,8.176,0,0,1-2.742,0V17.875a3.286,3.286,0,0,0-.322-1.6,1.17,1.17,0,0,0-1.111-.56,2.522,2.522,0,0,0-.676.1,1.418,1.418,0,0,0-.628.377,2.026,2.026,0,0,0-.454.783,4.1,4.1,0,0,0-.174,1.314v5.236a8.176,8.176,0,0,1-2.744,0Z" transform="translate(6326.86 3345.424)" fill="#fff"/>
    <path id="Path_5162" data-name="Path 5162" d="M-41.293-12.192q.31-.036.712-.073t.712-.036a10.336,10.336,0,0,1,1.46.107l2.865,10.347,2.9-10.347q.365-.055.7-.073t.685-.018q.328,0,.666.018t.7.073L-34.121.929q-.383.055-.739.082t-.758.026q-.365,0-.712-.027T-37.1.929Zm13.377,5.657h-1.223a4.115,4.115,0,0,1-.082-.5,4.888,4.888,0,0,1-.028-.5,4.287,4.287,0,0,1,.107-.966h3.757V.929a7.767,7.767,0,0,1-1.277.107A7.664,7.664,0,0,1-27.916.929Zm-.383-3.559a7.026,7.026,0,0,1-.107-1.223,7.24,7.24,0,0,1,.107-1.223q.31-.055.667-.083t.644-.028q.31,0,.675.028t.675.083a5.4,5.4,0,0,1,.073.611q.018.3.018.612,0,.292-.018.6a5.39,5.39,0,0,1-.073.62,5.443,5.443,0,0,1-.667.073q-.355.018-.667.018-.292,0-.657-.018A5.466,5.466,0,0,1-28.3-10.093Zm7.537,7.1A1.986,1.986,0,0,0-20-1.407a3.085,3.085,0,0,0,1.825.493A7.035,7.035,0,0,0-16.9-1.032a7.192,7.192,0,0,0,1.232-.337,4.238,4.238,0,0,1,.347.876A4.484,4.484,0,0,1-15.16.6a8.892,8.892,0,0,1-3.212.542A6.226,6.226,0,0,1-20.627.779,4,4,0,0,1-22.159-.234a4.065,4.065,0,0,1-.876-1.542,6.441,6.441,0,0,1-.282-1.953,6.371,6.371,0,0,1,.292-1.953,4.563,4.563,0,0,1,.866-1.588,4.1,4.1,0,0,1,1.423-1.067,4.675,4.675,0,0,1,1.978-.389,4.208,4.208,0,0,1,1.752.347,3.865,3.865,0,0,1,1.3.949A4,4,0,0,1-14.889-6a5.649,5.649,0,0,1,.274,1.779q0,.347-.027.685A5.273,5.273,0,0,1-14.706-3Zm3.7-1.807a2.3,2.3,0,0,0-.484-1.414,1.535,1.535,0,0,0-1.25-.537,1.8,1.8,0,0,0-1.387.511A2.4,2.4,0,0,0-20.745-4.8Zm4.416-7.61a7.872,7.872,0,0,1,1.3-.107,7.766,7.766,0,0,1,1.277.107v9.583a5.232,5.232,0,0,0,.063.912,1.347,1.347,0,0,0,.2.537.7.7,0,0,0,.356.264,1.754,1.754,0,0,0,.547.073,3.067,3.067,0,0,0,.322-.018,3.006,3.006,0,0,0,.337-.055,5.622,5.622,0,0,1,.2,1.46V.607a1.1,1.1,0,0,1-.036.265A3.387,3.387,0,0,1-8.78,1q-.413.036-.76.036A3.211,3.211,0,0,1-11.794.262a3.283,3.283,0,0,1-.845-2.526Zm6.606,5.876h-1.5a4.965,4.965,0,0,1-.073-.529q-.018-.237-.018-.493,0-.237.018-.456a4.4,4.4,0,0,1,.073-.493h1.5v-.456a4.3,4.3,0,0,1,.267-1.56,3.085,3.085,0,0,1,.751-1.151,3.336,3.336,0,0,1,1.181-.71,4.416,4.416,0,0,1,1.5-.248,7.8,7.8,0,0,1,.921.046,5.144,5.144,0,0,1,.813.173,10.223,10.223,0,0,1-.118,1.085,4.993,4.993,0,0,1-.265.958q-.2-.036-.42-.082a2.98,2.98,0,0,0-.584-.046,1.689,1.689,0,0,0-1.04.3,1.646,1.646,0,0,0-.438,1.288v.4h2.19a4.965,4.965,0,0,1,.073.529q.018.237.018.493,0,.237-.018.456a4.4,4.4,0,0,1-.073.493h-2.19V.929a7.767,7.767,0,0,1-1.277.107A7.872,7.872,0,0,1-6.036.929ZM5.1-3.4q-.215-.036-.474-.063a4.33,4.33,0,0,0-.456-.027,2.691,2.691,0,0,0-1.415.322,1.119,1.119,0,0,0-.52,1.032,1.158,1.158,0,0,0,.2.73,1.2,1.2,0,0,0,.484.375,1.986,1.986,0,0,0,.6.146q.322.027.556.027A3.328,3.328,0,0,0,4.621-.9Q4.9-.946,5.1-.983Zm0-1.88a1.509,1.509,0,0,0-.146-.712,1.092,1.092,0,0,0-.4-.429,1.669,1.669,0,0,0-.629-.215,5.762,5.762,0,0,0-.831-.055A6.458,6.458,0,0,0,.994-6.3a4.938,4.938,0,0,1-.383-.894,3.472,3.472,0,0,1-.132-1,9.69,9.69,0,0,1,1.61-.4,9.554,9.554,0,0,1,1.492-.128,4.423,4.423,0,0,1,2.965.912,3.641,3.641,0,0,1,1.068,2.92V.583A15.219,15.219,0,0,1,6.063.966,10.567,10.567,0,0,1,4,1.144,8.246,8.246,0,0,1,2.294.984,3.658,3.658,0,0,1,.962.437,2.576,2.576,0,0,1,.1-.549,3.283,3.283,0,0,1-.2-2.027,2.7,2.7,0,0,1,.177-3.5a2.884,2.884,0,0,1,.966-.949,4.28,4.28,0,0,1,1.325-.512,7.005,7.005,0,0,1,1.46-.155q.529,0,1.168.055ZM.8-9.891q-.036-.274-.063-.537a5.229,5.229,0,0,1-.028-.537,5.22,5.22,0,0,1,.028-.529q.028-.274.063-.547a5.367,5.367,0,0,1,.593-.082q.322-.028.575-.028t.574.028q.322.028.612.082a4.227,4.227,0,0,1,.073.537q.018.265.018.537,0,.255-.018.529a4.221,4.221,0,0,1-.073.547,4.792,4.792,0,0,1-.6.073q-.3.013-.579.013-.237,0-.566-.018a4.294,4.294,0,0,1-.6-.069Zm4.033,0a5.481,5.481,0,0,1-.107-1.073,5.481,5.481,0,0,1,.107-1.073,5.367,5.367,0,0,1,.593-.082q.322-.028.574-.028t.575.028q.322.028.611.082.036.274.055.537t.018.537q0,.255-.018.529t-.055.547a4.8,4.8,0,0,1-.611.073Q6.255-9.8,6-9.8t-.574-.018a4.271,4.271,0,0,1-.587-.077Zm5-2.518a7.872,7.872,0,0,1,1.3-.107,7.767,7.767,0,0,1,1.277.107v9.582a5.232,5.232,0,0,0,.063.912,1.347,1.347,0,0,0,.2.537.7.7,0,0,0,.356.264,1.754,1.754,0,0,0,.547.073A3.067,3.067,0,0,0,13.9-1.06a3.006,3.006,0,0,0,.337-.055,5.622,5.622,0,0,1,.2,1.46V.607A1.1,1.1,0,0,1,14.4.872,3.387,3.387,0,0,1,13.7,1q-.408.036-.755.036A3.211,3.211,0,0,1,10.689.262,3.283,3.283,0,0,1,9.84-2.265Zm6.241,5.876H14.9L14.8-6.9l3.413-4.362h.42V-8.5h2.208a4.4,4.4,0,0,1,.073.493q.018.215.018.456t-.018.493a4.964,4.964,0,0,1-.073.529H18.637v3.706a3.7,3.7,0,0,0,.091.912,1.354,1.354,0,0,0,.265.547.872.872,0,0,0,.429.274,2.206,2.206,0,0,0,.6.073,3.162,3.162,0,0,0,.537-.046l.466-.082a3.578,3.578,0,0,1,.182.72,4.655,4.655,0,0,1,.055.667q0,.2-.01.337t-.027.264a7.428,7.428,0,0,1-1.734.2A3.711,3.711,0,0,1,16.958.264a3.22,3.22,0,0,1-.876-2.527Zm7.245,0H22.1a4.114,4.114,0,0,1-.082-.5,4.885,4.885,0,0,1-.028-.5A4.288,4.288,0,0,1,22.1-8.5h3.757V.929a7.767,7.767,0,0,1-1.277.107A7.663,7.663,0,0,1,23.322.929Zm-.383-3.559a7.026,7.026,0,0,1-.107-1.223,7.24,7.24,0,0,1,.107-1.223q.31-.055.667-.083t.644-.028q.31,0,.675.028t.675.083a5.4,5.4,0,0,1,.073.611q.018.3.018.612,0,.292-.018.6a5.389,5.389,0,0,1-.073.62,5.442,5.442,0,0,1-.667.073q-.355.018-.667.018-.292,0-.657-.018a5.466,5.466,0,0,1-.666-.074ZM33.705-.639A3.719,3.719,0,0,1,36.15.1a2.543,2.543,0,0,1,.785,2,2.543,2.543,0,0,1-.4,1.4,3.469,3.469,0,0,1-1.095,1.067,5.6,5.6,0,0,1-1.642.675,8.409,8.409,0,0,1-2.04.237A8.571,8.571,0,0,1,29.9,5.3a3.915,3.915,0,0,1-1.25-.483,1.811,1.811,0,0,1-.693-.766,2.372,2.372,0,0,1-.215-1,2.207,2.207,0,0,1,.4-1.353A3.656,3.656,0,0,1,29.184.765a2.071,2.071,0,0,1-.666-.629,1.71,1.71,0,0,1-.246-.958,2,2,0,0,1,.292-1.131,3.321,3.321,0,0,1,.859-.839A3.186,3.186,0,0,1,28.436-3.9a3.079,3.079,0,0,1-.347-1.46,3.2,3.2,0,0,1,.278-1.331,3,3,0,0,1,.794-1.058,3.809,3.809,0,0,1,1.268-.7,5.175,5.175,0,0,1,1.679-.255,4.815,4.815,0,0,1,1.679.283,4.15,4.15,0,0,1,1.277.721,2.179,2.179,0,0,1,.859-.685,3.465,3.465,0,0,1,1.387-.228q.036.237.063.465a4.063,4.063,0,0,1,.028.484q0,.292-.018.584a5.408,5.408,0,0,1-.073.6H35.827a2.555,2.555,0,0,1,.164.438,2.535,2.535,0,0,1,.073.675A3.294,3.294,0,0,1,35.8-4.046,2.864,2.864,0,0,1,35.024-3a3.809,3.809,0,0,1-1.25.693,5.093,5.093,0,0,1-1.67.255A5.5,5.5,0,0,1,30.7-2.212a.859.859,0,0,0-.383.429,1.411,1.411,0,0,0-.073.429.626.626,0,0,0,.192.474,1.227,1.227,0,0,0,.775.2Zm-2.332,1.9a1.564,1.564,0,0,0-.667.091,1.134,1.134,0,0,0-.42.283,1.012,1.012,0,0,0-.215.383,1.406,1.406,0,0,0-.063.411.94.94,0,0,0,.52.939,3.3,3.3,0,0,0,1.4.247,4.028,4.028,0,0,0,1.853-.365,1.1,1.1,0,0,0,.7-.985,1.288,1.288,0,0,0-.045-.347.721.721,0,0,0-.174-.3.971.971,0,0,0-.355-.229,1.681,1.681,0,0,0-.614-.092Zm.751-4.982a1.307,1.307,0,0,0,1.1-.438,1.932,1.932,0,0,0,.338-1.2,1.969,1.969,0,0,0-.341-1.218,1.3,1.3,0,0,0-1.1-.442,1.344,1.344,0,0,0-1.134.442,1.932,1.932,0,0,0-.347,1.214,1.891,1.891,0,0,0,.347,1.2,1.358,1.358,0,0,0,1.134.442Zm8.5.73A1.986,1.986,0,0,0,41.4-1.407a3.085,3.085,0,0,0,1.825.493,7.035,7.035,0,0,0,1.269-.118,7.192,7.192,0,0,0,1.231-.337,4.238,4.238,0,0,1,.347.876A4.484,4.484,0,0,1,46.231.6a8.892,8.892,0,0,1-3.214.542A6.226,6.226,0,0,1,40.763.779,4,4,0,0,1,39.231-.23a4.065,4.065,0,0,1-.88-1.542,6.441,6.441,0,0,1-.283-1.953,6.371,6.371,0,0,1,.292-1.953,4.563,4.563,0,0,1,.867-1.588A4.1,4.1,0,0,1,40.65-8.332a4.675,4.675,0,0,1,1.979-.393,4.208,4.208,0,0,1,1.752.347,3.865,3.865,0,0,1,1.3.949A4,4,0,0,1,46.5-6a5.649,5.649,0,0,1,.274,1.779q0,.347-.028.685T46.681-3Zm3.7-1.807a2.3,2.3,0,0,0-.484-1.414A1.535,1.535,0,0,0,42.6-6.751a1.8,1.8,0,0,0-1.387.511A2.4,2.4,0,0,0,40.646-4.8ZM-34.577,9.278A6.722,6.722,0,0,1-33.9,9.2q.328-.018.675-.018.31,0,.639.018a6.722,6.722,0,0,1,.675.073v6.807a18.9,18.9,0,0,0,.082,1.906A4.063,4.063,0,0,0-31.5,19.3a1.647,1.647,0,0,0,.693.766,2.391,2.391,0,0,0,1.159.246,2.336,2.336,0,0,0,1.15-.246,1.662,1.662,0,0,0,.684-.766,4.063,4.063,0,0,0,.328-1.314,18.9,18.9,0,0,0,.082-1.906V9.278q.365-.055.693-.073t.639-.018q.328,0,.667.018a6.707,6.707,0,0,1,.685.073V16.65a12.549,12.549,0,0,1-.215,2.436,4.773,4.773,0,0,1-.785,1.889,3.7,3.7,0,0,1-1.516,1.209,5.869,5.869,0,0,1-2.409.429,5.869,5.869,0,0,1-2.409-.429,3.7,3.7,0,0,1-1.516-1.209,4.773,4.773,0,0,1-.785-1.889,12.548,12.548,0,0,1-.215-2.436Zm12.318,3.686q.274-.055.52-.082a4.894,4.894,0,0,1,.537-.028,3.935,3.935,0,0,1,.537.036q.265.036.521.091a1.051,1.051,0,0,1,.1.264q.046.174.083.365t.063.383l.045.322a4.7,4.7,0,0,1,.985-1.012,2.332,2.332,0,0,1,1.46-.448q.182,0,.42.018a1.578,1.578,0,0,1,.347.055,3.543,3.543,0,0,1,.055.42q.018.237.018.493,0,.31-.027.675a4.877,4.877,0,0,1-.1.693,2.509,2.509,0,0,0-.448-.036h-.3a4.255,4.255,0,0,0-.693.063,1.6,1.6,0,0,0-.73.338,2,2,0,0,0-.574.821,4.108,4.108,0,0,0-.228,1.533v4.489a6.026,6.026,0,0,1-.657.073q-.328.018-.644.018t-.63-.018a6.606,6.606,0,0,1-.666-.073Zm8.96,5.329a3.613,3.613,0,0,1-1.6-.866,2.342,2.342,0,0,1-.574-1.725,2.613,2.613,0,0,1,.994-2.172,4.263,4.263,0,0,1,2.711-.785,7.74,7.74,0,0,1,1.405.128,8.968,8.968,0,0,1,1.405.383,4.98,4.98,0,0,1-.182.985,4.73,4.73,0,0,1-.347.894,7.211,7.211,0,0,0-.966-.322,4.429,4.429,0,0,0-1.113-.137,2.019,2.019,0,0,0-.966.192.644.644,0,0,0-.347.611.629.629,0,0,0,.246.566,2.878,2.878,0,0,0,.7.31l1.04.31a5.1,5.1,0,0,1,.922.356,2.544,2.544,0,0,1,.7.521,2.177,2.177,0,0,1,.456.766,3.305,3.305,0,0,1,.164,1.113,2.85,2.85,0,0,1-.283,1.259,2.907,2.907,0,0,1-.821,1.013,4.071,4.071,0,0,1-1.3.675,5.655,5.655,0,0,1-1.734.246q-.438,0-.8-.028a6.322,6.322,0,0,1-.7-.091q-.338-.064-.667-.156t-.712-.237a5.248,5.248,0,0,1,.173-1,6.251,6.251,0,0,1,.356-.977,7.576,7.576,0,0,0,1.14.355,5.2,5.2,0,0,0,1.122.119,3.734,3.734,0,0,0,.556-.045,2.04,2.04,0,0,0,.557-.164,1.318,1.318,0,0,0,.429-.31.719.719,0,0,0,.173-.5.725.725,0,0,0-.265-.63,2.553,2.553,0,0,0-.739-.338Zm11.278-.215q-.215-.037-.474-.063a4.33,4.33,0,0,0-.456-.028,2.691,2.691,0,0,0-1.415.322,1.119,1.119,0,0,0-.52,1.032,1.158,1.158,0,0,0,.2.73,1.2,1.2,0,0,0,.484.375,1.986,1.986,0,0,0,.6.146q.322.028.556.027a3.328,3.328,0,0,0,.547-.045l.474-.082Zm0-1.88a1.509,1.509,0,0,0-.146-.712,1.092,1.092,0,0,0-.4-.429,1.669,1.669,0,0,0-.629-.215,5.762,5.762,0,0,0-.831-.055,6.458,6.458,0,0,0-2.1.383,4.938,4.938,0,0,1-.383-.894,3.472,3.472,0,0,1-.128-1,9.69,9.69,0,0,1,1.61-.4,9.561,9.561,0,0,1,1.5-.128,4.423,4.423,0,0,1,2.965.912A3.641,3.641,0,0,1,.5,16.577v5.475a15.219,15.219,0,0,1-1.551.383,10.567,10.567,0,0,1-2.062.182,8.246,8.246,0,0,1-1.706-.164,3.658,3.658,0,0,1-1.332-.547,2.576,2.576,0,0,1-.859-.985,3.283,3.283,0,0,1-.3-1.478,2.7,2.7,0,0,1,.375-1.469,2.884,2.884,0,0,1,.966-.949,4.28,4.28,0,0,1,1.324-.511,7.006,7.006,0,0,1,1.46-.155q.529,0,1.168.055Zm11.15,3.974a3.757,3.757,0,0,1,.365.848,3.972,3.972,0,0,1,.146,1.141,5.651,5.651,0,0,1-1.369.375,10.445,10.445,0,0,1-1.332.082,5.222,5.222,0,0,1-2.062-.375,3.96,3.96,0,0,1-1.45-1.025,4.385,4.385,0,0,1-.867-1.561,6.746,6.746,0,0,1-.009-3.9,4.472,4.472,0,0,1,.859-1.569,3.986,3.986,0,0,1,1.432-1.058,4.831,4.831,0,0,1,1.989-.383q.4,0,.739.018a5.406,5.406,0,0,1,.644.073,5.722,5.722,0,0,1,.62.146q.31.091.693.237a4.6,4.6,0,0,1-.107.94,4.106,4.106,0,0,1-.347.994,6.025,6.025,0,0,0-.959-.246,6.168,6.168,0,0,0-.939-.063,2.029,2.029,0,0,0-1.706.74,3.37,3.37,0,0,0-.575,2.108,3.118,3.118,0,0,0,.62,2.153,2.168,2.168,0,0,0,1.679.675q.274,0,.5-.01a3.59,3.59,0,0,0,.448-.045,3.187,3.187,0,0,0,.447-.107Q8.819,20.282,9.129,20.172Zm2.3-11.114a5.394,5.394,0,0,1,.644-.073q.328-.018.639-.018t.644.018a6.026,6.026,0,0,1,.657.073v5.018q.128-.164.337-.393a2.944,2.944,0,0,1,.52-.438,3.055,3.055,0,0,1,.751-.356,3.17,3.17,0,0,1,1-.146A3.089,3.089,0,0,1,19,13.62a3.957,3.957,0,0,1,.813,2.756v6.04a6.027,6.027,0,0,1-.657.073q-.328.018-.644.018t-.644-.018a6.027,6.027,0,0,1-.657-.073V17.07a3.026,3.026,0,0,0-.31-1.515,1.126,1.126,0,0,0-1.058-.529,2.382,2.382,0,0,0-.644.091,1.34,1.34,0,0,0-.594.356,2,2,0,0,0-.438.74A3.686,3.686,0,0,0,14,17.454v4.964a6.027,6.027,0,0,1-.657.073q-.328.018-.644.018t-.629-.018a6.034,6.034,0,0,1-.644-.073Zm12.793,9.416a1.986,1.986,0,0,0,.766,1.588,3.085,3.085,0,0,0,1.825.493,7.034,7.034,0,0,0,1.268-.119,7.192,7.192,0,0,0,1.232-.338,4.238,4.238,0,0,1,.347.876,4.484,4.484,0,0,1,.164,1.095,8.892,8.892,0,0,1-3.212.547,6.226,6.226,0,0,1-2.254-.365,4,4,0,0,1-1.533-1.013,4.065,4.065,0,0,1-.876-1.543,6.441,6.441,0,0,1-.282-1.953,6.371,6.371,0,0,1,.292-1.953,4.563,4.563,0,0,1,.866-1.588,4.1,4.1,0,0,1,1.423-1.068,4.675,4.675,0,0,1,1.981-.393,4.208,4.208,0,0,1,1.752.347,3.865,3.865,0,0,1,1.3.949,4,4,0,0,1,.813,1.433,5.649,5.649,0,0,1,.274,1.779q0,.347-.028.685t-.063.537Zm3.7-1.807a2.3,2.3,0,0,0-.484-1.415,1.535,1.535,0,0,0-1.25-.537,1.8,1.8,0,0,0-1.387.511,2.4,2.4,0,0,0-.566,1.442Zm4.489-3.7a4.959,4.959,0,0,1,.511-.082,5.341,5.341,0,0,1,.566-.028,4.831,4.831,0,0,1,.547.028q.237.027.493.082a1.051,1.051,0,0,1,.1.265q.046.174.082.365t.063.374q.028.182.045.31a4.314,4.314,0,0,1,.438-.547,3.154,3.154,0,0,1,.594-.493,3.22,3.22,0,0,1,.757-.356,2.991,2.991,0,0,1,.931-.137,3.139,3.139,0,0,1,2.417.876,3.957,3.957,0,0,1,.813,2.756V22.4a7.72,7.72,0,0,1-2.591,0V17.07a3.1,3.1,0,0,0-.3-1.515,1.1,1.1,0,0,0-1.05-.529,2.382,2.382,0,0,0-.644.091,1.34,1.34,0,0,0-.593.356,1.913,1.913,0,0,0-.429.74A3.876,3.876,0,0,0,35,17.454V22.4a7.72,7.72,0,0,1-2.591,0Z" transform="translate(6194.348 3344.396)" fill="#fff"/>
    <path id="Path_5163" data-name="Path 5163" d="M-55.08-12.216a8.313,8.313,0,0,1,1.332-.107,8.654,8.654,0,0,1,1.35.107V.905a8.546,8.546,0,0,1-1.332.107A8.424,8.424,0,0,1-55.08.905Zm5.475,3.686a4.958,4.958,0,0,1,.511-.082,5.341,5.341,0,0,1,.566-.028,4.831,4.831,0,0,1,.547.028q.237.027.493.082a1.05,1.05,0,0,1,.1.265q.045.174.082.365t.063.374q.028.182.046.31a2.992,2.992,0,0,1,.383-.547,2.791,2.791,0,0,1,.566-.493,3.081,3.081,0,0,1,.739-.356,2.9,2.9,0,0,1,.922-.137,2.671,2.671,0,0,1,2.829,1.68A3.634,3.634,0,0,1-40.728-8.25a2.728,2.728,0,0,1,1.689-.5,2.943,2.943,0,0,1,2.362.886A4.193,4.193,0,0,1-35.921-5.1V.905a7.872,7.872,0,0,1-1.3.107A7.872,7.872,0,0,1-38.51.905V-4.423a3.7,3.7,0,0,0-.246-1.515.985.985,0,0,0-1-.529,2.1,2.1,0,0,0-.611.091,1.305,1.305,0,0,0-.547.338,1.8,1.8,0,0,0-.4.693,3.6,3.6,0,0,0-.156,1.159V.905a7.872,7.872,0,0,1-1.3.107,7.872,7.872,0,0,1-1.3-.107V-4.423A3.7,3.7,0,0,0-44.3-5.938a.985.985,0,0,0-.994-.529,2.19,2.19,0,0,0-.62.091,1.23,1.23,0,0,0-.557.356,1.883,1.883,0,0,0-.392.74,4.329,4.329,0,0,0-.146,1.241V.905a7.872,7.872,0,0,1-1.3.107,7.872,7.872,0,0,1-1.3-.107Zm16.278,0a4.958,4.958,0,0,1,.511-.082,5.341,5.341,0,0,1,.566-.028,4.831,4.831,0,0,1,.547.028q.237.027.493.082a1.05,1.05,0,0,1,.1.265q.045.174.082.365t.063.374q.028.182.046.31a2.992,2.992,0,0,1,.383-.547,2.791,2.791,0,0,1,.566-.493,3.081,3.081,0,0,1,.739-.355,2.9,2.9,0,0,1,.921-.137,2.671,2.671,0,0,1,2.829,1.679A3.634,3.634,0,0,1-24.45-8.25a2.727,2.727,0,0,1,1.689-.5,2.943,2.943,0,0,1,2.362.886A4.193,4.193,0,0,1-19.643-5.1V.905a7.872,7.872,0,0,1-1.3.107A7.872,7.872,0,0,1-22.232.905V-4.423a3.7,3.7,0,0,0-.246-1.515.985.985,0,0,0-1-.529,2.1,2.1,0,0,0-.611.091,1.305,1.305,0,0,0-.547.338,1.8,1.8,0,0,0-.4.693,3.6,3.6,0,0,0-.156,1.159V.905a7.872,7.872,0,0,1-1.3.107,7.872,7.872,0,0,1-1.3-.107V-4.423a3.7,3.7,0,0,0-.246-1.515.985.985,0,0,0-1-.529,2.19,2.19,0,0,0-.62.091,1.23,1.23,0,0,0-.557.356,1.883,1.883,0,0,0-.392.74,4.329,4.329,0,0,0-.144,1.24V.905a7.872,7.872,0,0,1-1.3.107,7.872,7.872,0,0,1-1.3-.107Zm16.114,0a7.872,7.872,0,0,1,1.3-.107,7.872,7.872,0,0,1,1.3.107v5A5.3,5.3,0,0,0-14.5-2.3a1.8,1.8,0,0,0,.365.766,1.347,1.347,0,0,0,.611.4,2.782,2.782,0,0,0,.859.119,4.264,4.264,0,0,0,1.13-.125v-7.4a7.766,7.766,0,0,1,1.277-.107,7.872,7.872,0,0,1,1.3.107V.54a12.375,12.375,0,0,1-1.543.393,10.169,10.169,0,0,1-2,.187A10.646,10.646,0,0,1-14.293.978a3.5,3.5,0,0,1-1.5-.62,3.2,3.2,0,0,1-1.031-1.387,6.374,6.374,0,0,1-.381-2.427Zm10.842,0a4.958,4.958,0,0,1,.511-.082,5.341,5.341,0,0,1,.568-.028,4.83,4.83,0,0,1,.547.028q.237.027.493.082a1.051,1.051,0,0,1,.1.265q.046.174.082.365t.064.374q.027.182.046.31a4.314,4.314,0,0,1,.438-.547,3.154,3.154,0,0,1,.591-.493,3.22,3.22,0,0,1,.751-.355,2.991,2.991,0,0,1,.931-.137,3.139,3.139,0,0,1,2.417.876,3.957,3.957,0,0,1,.816,2.756V.905a7.872,7.872,0,0,1-1.3.107A7.872,7.872,0,0,1-.607.905V-4.423a3.1,3.1,0,0,0-.3-1.515,1.1,1.1,0,0,0-1.05-.529,2.382,2.382,0,0,0-.639.091,1.34,1.34,0,0,0-.594.356,1.913,1.913,0,0,0-.429.74,3.876,3.876,0,0,0-.164,1.241V.905a7.872,7.872,0,0,1-1.295.107,7.872,7.872,0,0,1-1.3-.107ZM6.4-3.2a3.613,3.613,0,0,1-1.6-.867,2.342,2.342,0,0,1-.575-1.724,2.613,2.613,0,0,1,1-2.172,4.263,4.263,0,0,1,2.711-.785,7.74,7.74,0,0,1,1.405.128,8.968,8.968,0,0,1,1.405.383,4.98,4.98,0,0,1-.182.985,4.73,4.73,0,0,1-.347.894,7.212,7.212,0,0,0-.966-.322A4.429,4.429,0,0,0,8.14-6.817a2.019,2.019,0,0,0-.966.192.644.644,0,0,0-.347.611.629.629,0,0,0,.246.566,2.878,2.878,0,0,0,.7.31l1.04.31a5.1,5.1,0,0,1,.922.356,2.544,2.544,0,0,1,.7.52,2.177,2.177,0,0,1,.456.766,3.305,3.305,0,0,1,.164,1.113,2.85,2.85,0,0,1-.29,1.26A2.907,2.907,0,0,1,9.951.2a4.071,4.071,0,0,1-1.3.675,5.655,5.655,0,0,1-1.735.243q-.438,0-.8-.024a6.322,6.322,0,0,1-.7-.09Q5.069.942,4.74.851T4.029.613a5.248,5.248,0,0,1,.174-1,6.251,6.251,0,0,1,.355-.977A7.576,7.576,0,0,0,5.7-1a5.2,5.2,0,0,0,1.123.119,3.733,3.733,0,0,0,.553-.044,2.04,2.04,0,0,0,.557-.164,1.318,1.318,0,0,0,.429-.31.719.719,0,0,0,.173-.5.725.725,0,0,0-.262-.624,2.553,2.553,0,0,0-.74-.338Zm5.71-5.329a4.085,4.085,0,0,1,.736-.1q.322-.01.594-.01.365,0,.751.018a3.833,3.833,0,0,1,.693.091L16.859-.3l2.226-8.23a6.924,6.924,0,0,1,1.241-.107q.274,0,.584.01a4.743,4.743,0,0,1,.766.1L18.153,3.132a4.616,4.616,0,0,1-.52,1.15,2.478,2.478,0,0,1-.684.712,2.441,2.441,0,0,1-.859.355,4.938,4.938,0,0,1-1.022.1,6.032,6.032,0,0,1-.921-.063,7.417,7.417,0,0,1-.813-.173.812.812,0,0,1-.018-.156V4.92a3.339,3.339,0,0,1,.1-.83,6.119,6.119,0,0,1,.246-.758,2.99,2.99,0,0,0,.438.1,3.328,3.328,0,0,0,.547.046,3.527,3.527,0,0,0,.438-.028,1.011,1.011,0,0,0,.429-.164,1.359,1.359,0,0,0,.392-.429,3.179,3.179,0,0,0,.328-.821l.31-1.131q-.2.018-.448.027t-.5.01h-.388a1.357,1.357,0,0,1-.322-.036ZM25.161-3.2a3.613,3.613,0,0,1-1.6-.867,2.342,2.342,0,0,1-.574-1.725,2.613,2.613,0,0,1,.994-2.172A4.263,4.263,0,0,1,26.7-8.748a7.74,7.74,0,0,1,1.405.128,8.968,8.968,0,0,1,1.405.383,4.98,4.98,0,0,1-.182.985,4.73,4.73,0,0,1-.347.894,7.212,7.212,0,0,0-.966-.322A4.429,4.429,0,0,0,26.9-6.817a2.019,2.019,0,0,0-.966.192.644.644,0,0,0-.347.611.629.629,0,0,0,.246.566,2.878,2.878,0,0,0,.7.31l1.04.31a5.1,5.1,0,0,1,.922.356,2.544,2.544,0,0,1,.7.52,2.177,2.177,0,0,1,.456.766,3.305,3.305,0,0,1,.155,1.116,2.85,2.85,0,0,1-.278,1.257A2.907,2.907,0,0,1,28.711.2a4.071,4.071,0,0,1-1.3.675,5.655,5.655,0,0,1-1.735.245q-.438,0-.8-.024a6.321,6.321,0,0,1-.7-.091Q23.832.941,23.5.85T22.792.612a5.248,5.248,0,0,1,.173-1,6.251,6.251,0,0,1,.356-.977A7.575,7.575,0,0,0,24.462-1a5.2,5.2,0,0,0,1.122.119,3.733,3.733,0,0,0,.556-.046A2.04,2.04,0,0,0,26.7-1.1a1.318,1.318,0,0,0,.429-.31.719.719,0,0,0,.173-.5.725.725,0,0,0-.265-.629,2.553,2.553,0,0,0-.739-.338Zm7.062-3.358H31.042l-.091-.365,3.413-4.362h.42v2.756h2.208a4.4,4.4,0,0,1,.073.493q.018.215.018.456t-.018.493a4.965,4.965,0,0,1-.073.529H34.778v3.707a3.7,3.7,0,0,0,.091.912,1.354,1.354,0,0,0,.265.547.872.872,0,0,0,.429.274,2.206,2.206,0,0,0,.6.073,3.162,3.162,0,0,0,.537-.046l.466-.082a3.578,3.578,0,0,1,.182.72,4.655,4.655,0,0,1,.055.667q0,.2-.01.337t-.027.264a7.428,7.428,0,0,1-1.734.2A3.711,3.711,0,0,1,33.1.24a3.22,3.22,0,0,1-.876-2.527Zm9.033,3.542a1.986,1.986,0,0,0,.766,1.588,3.085,3.085,0,0,0,1.825.493,7.034,7.034,0,0,0,1.269-.118,7.192,7.192,0,0,0,1.231-.337,4.238,4.238,0,0,1,.347.876A4.484,4.484,0,0,1,46.859.58a8.892,8.892,0,0,1-3.212.54A6.226,6.226,0,0,1,41.393.755,4,4,0,0,1,39.86-.258,4.065,4.065,0,0,1,38.984-1.8,6.441,6.441,0,0,1,38.7-3.752a6.371,6.371,0,0,1,.292-1.953,4.563,4.563,0,0,1,.867-1.588A4.1,4.1,0,0,1,41.283-8.36a4.675,4.675,0,0,1,1.979-.393,4.208,4.208,0,0,1,1.752.347,3.864,3.864,0,0,1,1.3.949,4,4,0,0,1,.813,1.433,5.649,5.649,0,0,1,.274,1.779q0,.347-.028.685t-.063.537Zm3.7-1.807a2.3,2.3,0,0,0-.484-1.414,1.535,1.535,0,0,0-1.251-.537,1.8,1.8,0,0,0-1.387.511,2.4,2.4,0,0,0-.566,1.442Zm4.723-3.7a4.959,4.959,0,0,1,.511-.082,5.341,5.341,0,0,1,.566-.028,4.831,4.831,0,0,1,.547.028q.237.027.493.082a1.05,1.05,0,0,1,.1.265q.045.174.082.365t.063.374q.028.182.046.31a2.992,2.992,0,0,1,.383-.547,2.791,2.791,0,0,1,.566-.493,3.081,3.081,0,0,1,.739-.356,2.9,2.9,0,0,1,.922-.137,2.671,2.671,0,0,1,2.829,1.679,3.634,3.634,0,0,1,1.031-1.181,2.728,2.728,0,0,1,1.689-.5,2.943,2.943,0,0,1,2.362.886A4.193,4.193,0,0,1,63.369-5.1v6a7.872,7.872,0,0,1-1.29.107,7.872,7.872,0,0,1-1.3-.107V-4.423a3.7,3.7,0,0,0-.246-1.515.985.985,0,0,0-1-.529,2.1,2.1,0,0,0-.611.091,1.305,1.305,0,0,0-.547.338,1.8,1.8,0,0,0-.4.693,3.6,3.6,0,0,0-.156,1.159V.905a7.872,7.872,0,0,1-1.3.107,7.872,7.872,0,0,1-1.3-.107V-4.423a3.7,3.7,0,0,0-.247-1.515.985.985,0,0,0-.994-.529,2.19,2.19,0,0,0-.62.091,1.23,1.23,0,0,0-.557.356,1.883,1.883,0,0,0-.392.74,4.329,4.329,0,0,0-.146,1.241V.905a7.872,7.872,0,0,1-1.3.107,7.872,7.872,0,0,1-1.3-.107Z" transform="translate(6191.8 3196.858)" fill="#fff"/>
    <path id="Path_5164" data-name="Path 5164" d="M-52.9-12.909a8.8,8.8,0,0,1,1.411-.116,9.163,9.163,0,0,1,1.43.116V-7.46H-45.4v-5.449a8.8,8.8,0,0,1,1.413-.116,9.163,9.163,0,0,1,1.43.116V.984a9.048,9.048,0,0,1-1.411.116A8.922,8.922,0,0,1-45.406.984V-5.028h-4.657V.984a9.048,9.048,0,0,1-1.411.116A8.919,8.919,0,0,1-52.9.984ZM-34.64-3.6q-.232-.039-.5-.068a4.585,4.585,0,0,0-.483-.029,2.849,2.849,0,0,0-1.5.338,1.181,1.181,0,0,0-.551,1.092,1.227,1.227,0,0,0,.215.773,1.269,1.269,0,0,0,.512.4,2.1,2.1,0,0,0,.638.155q.338.029.589.029a3.52,3.52,0,0,0,.58-.048q.29-.048.5-.087Zm0-1.99a1.6,1.6,0,0,0-.155-.751,1.156,1.156,0,0,0-.429-.454,1.768,1.768,0,0,0-.667-.222,6.1,6.1,0,0,0-.879-.058,6.838,6.838,0,0,0-2.222.406,5.227,5.227,0,0,1-.406-.947,3.676,3.676,0,0,1-.133-1.065,10.261,10.261,0,0,1,1.7-.429,10.122,10.122,0,0,1,1.584-.135,4.682,4.682,0,0,1,3.14.966,3.856,3.856,0,0,1,1.13,3.092v5.8a16.114,16.114,0,0,1-1.642.406,11.189,11.189,0,0,1-2.183.193,8.732,8.732,0,0,1-1.807-.17,3.874,3.874,0,0,1-1.411-.58,2.73,2.73,0,0,1-.908-1.043,3.476,3.476,0,0,1-.322-1.565,2.862,2.862,0,0,1,.4-1.555,3.055,3.055,0,0,1,1.024-1,4.531,4.531,0,0,1,1.4-.537,7.418,7.418,0,0,1,1.546-.164q.56,0,1.237.058Zm5.159-3.42a8.334,8.334,0,0,1,1.372-.116,8.334,8.334,0,0,1,1.372.116v5.294a5.613,5.613,0,0,0,.126,1.3,1.909,1.909,0,0,0,.386.812,1.426,1.426,0,0,0,.644.429,2.947,2.947,0,0,0,.908.126,4.515,4.515,0,0,0,1.2-.135V-9a8.223,8.223,0,0,1,1.353-.116A8.334,8.334,0,0,1-20.751-9V.6a13.1,13.1,0,0,1-1.633.415,10.767,10.767,0,0,1-2.116.2,11.271,11.271,0,0,1-1.893-.155A3.708,3.708,0,0,1-27.986.4a3.391,3.391,0,0,1-1.092-1.469,6.749,6.749,0,0,1-.406-2.568Zm11.727,2.087h-1.256l-.1-.386,3.613-4.616h.444V-9h2.338a4.664,4.664,0,0,1,.077.522q.019.232.019.483,0,.271-.019.522a5.26,5.26,0,0,1-.077.56h-2.338v3.922a3.918,3.918,0,0,0,.1.966,1.433,1.433,0,0,0,.28.58.922.922,0,0,0,.454.29,2.335,2.335,0,0,0,.638.077,3.349,3.349,0,0,0,.57-.048l.493-.087a3.788,3.788,0,0,1,.193.763,4.93,4.93,0,0,1,.058.705q0,.215-.01.357t-.029.28a7.865,7.865,0,0,1-1.836.215A3.929,3.929,0,0,1-16.825.283a3.411,3.411,0,0,1-.93-2.68Zm7.323-6.226a8.223,8.223,0,0,1,1.353-.116,8.334,8.334,0,0,1,1.372.116v5.1A2.163,2.163,0,0,1-6.741-8.9a3.41,3.41,0,0,1,1.546-.338,4.163,4.163,0,0,1,1.61.309A3.4,3.4,0,0,1-2.3-7.995a4.539,4.539,0,0,1,.85,1.575,7.248,7.248,0,0,1,.309,2.245,6.18,6.18,0,0,1-.386,2.254A4.574,4.574,0,0,1-2.644-.233,5,5,0,0,1-4.441.84a7.14,7.14,0,0,1-2.4.376q-.429,0-.9-.039t-.956-.107Q-9.175,1-9.62.9a7.192,7.192,0,0,1-.812-.242ZM-7.707-1.18a2.026,2.026,0,0,0,.493.1q.261.019.531.019A2.624,2.624,0,0,0-4.712-1.8,3.194,3.194,0,0,0-4-4.1a4.091,4.091,0,0,0-.444-2.11,1.626,1.626,0,0,0-1.5-.725,1.679,1.679,0,0,0-1.266.512,2.261,2.261,0,0,0-.5,1.608ZM6.225-3.6q-.232-.036-.5-.068a4.585,4.585,0,0,0-.483-.029,2.849,2.849,0,0,0-1.5.338,1.181,1.181,0,0,0-.545,1.092,1.227,1.227,0,0,0,.215.773,1.269,1.269,0,0,0,.512.4,2.1,2.1,0,0,0,.638.155q.338.029.589.029a3.52,3.52,0,0,0,.58-.048q.29-.048.5-.087Zm0-1.99a1.6,1.6,0,0,0-.155-.751,1.156,1.156,0,0,0-.429-.454,1.768,1.768,0,0,0-.667-.222,6.1,6.1,0,0,0-.873-.06,6.838,6.838,0,0,0-2.222.406,5.227,5.227,0,0,1-.408-.947,3.676,3.676,0,0,1-.135-1.063,10.26,10.26,0,0,1,1.7-.429,10.122,10.122,0,0,1,1.584-.131,4.682,4.682,0,0,1,3.14.966A3.856,3.856,0,0,1,8.891-5.18v5.8a16.114,16.114,0,0,1-1.642.406,11.189,11.189,0,0,1-2.181.193,8.732,8.732,0,0,1-1.809-.174A3.874,3.874,0,0,1,1.847.462,2.73,2.73,0,0,1,.939-.581,3.476,3.476,0,0,1,.617-2.146a2.862,2.862,0,0,1,.4-1.555,3.055,3.055,0,0,1,1.028-1,4.531,4.531,0,0,1,1.4-.537,7.418,7.418,0,0,1,1.546-.164q.56,0,1.237.058Zm5.333-3.42q.29-.058.551-.087a5.183,5.183,0,0,1,.57-.029,4.167,4.167,0,0,1,.57.039q.28.039.551.1a1.112,1.112,0,0,1,.107.28q.048.184.087.386t.068.406l.048.338a4.979,4.979,0,0,1,1.043-1.073A2.469,2.469,0,0,1,16.7-9.123q.193,0,.444.019a1.671,1.671,0,0,1,.367.058,3.757,3.757,0,0,1,.058.444q.019.251.019.522,0,.328-.029.715a5.164,5.164,0,0,1-.107.734,2.657,2.657,0,0,0-.473-.039h-.322a4.509,4.509,0,0,0-.734.068,1.69,1.69,0,0,0-.773.357,2.115,2.115,0,0,0-.609.87A4.35,4.35,0,0,0,14.3-3.75V1a6.382,6.382,0,0,1-.693.077q-.348.019-.676.019t-.67-.019q-.335-.019-.7-.077Zm8,0q.29-.058.551-.087a5.183,5.183,0,0,1,.57-.029,4.167,4.167,0,0,1,.57.039q.28.039.551.1a1.112,1.112,0,0,1,.107.28q.048.184.087.386t.068.406l.048.338a4.979,4.979,0,0,1,1.043-1.073A2.469,2.469,0,0,1,24.7-9.123q.193,0,.444.019a1.671,1.671,0,0,1,.367.058,3.757,3.757,0,0,1,.058.444q.019.251.019.522,0,.328-.029.715a5.164,5.164,0,0,1-.107.734,2.657,2.657,0,0,0-.473-.039h-.322a4.508,4.508,0,0,0-.734.068,1.69,1.69,0,0,0-.773.357,2.115,2.115,0,0,0-.609.87A4.35,4.35,0,0,0,22.3-3.751V1a6.382,6.382,0,0,1-.7.077q-.348.019-.676.019t-.663-.019a7.052,7.052,0,0,1-.7-.077ZM28.1-6.919H26.8a4.357,4.357,0,0,1-.087-.537,5.175,5.175,0,0,1-.029-.531A4.54,4.54,0,0,1,26.8-9.011h3.98v10a8.223,8.223,0,0,1-1.348.116A8.114,8.114,0,0,1,28.1.984Zm-.406-3.768a7.439,7.439,0,0,1-.116-1.295,7.667,7.667,0,0,1,.116-1.295q.328-.058.705-.087t.686-.029q.328,0,.715.029t.715.087a5.711,5.711,0,0,1,.077.644q.019.322.019.644t-.019.638a5.705,5.705,0,0,1-.077.657,5.762,5.762,0,0,1-.705.077q-.377.019-.705.019-.309,0-.7-.019a5.788,5.788,0,0,1-.715-.071ZM35.9-3.173a2.1,2.1,0,0,0,.812,1.687,3.267,3.267,0,0,0,1.932.522,7.448,7.448,0,0,0,1.343-.126,7.611,7.611,0,0,0,1.3-.357,4.487,4.487,0,0,1,.367.927A4.747,4.747,0,0,1,41.836.64a9.414,9.414,0,0,1-3.4.58A6.594,6.594,0,0,1,36.049.834,4.235,4.235,0,0,1,34.426-.24,4.3,4.3,0,0,1,33.5-1.873a6.825,6.825,0,0,1-.3-2.068,6.745,6.745,0,0,1,.309-2.068,4.831,4.831,0,0,1,.918-1.681,4.342,4.342,0,0,1,1.5-1.13,4.951,4.951,0,0,1,2.1-.415,4.456,4.456,0,0,1,1.855.367,4.089,4.089,0,0,1,1.382,1,4.233,4.233,0,0,1,.859,1.517,5.98,5.98,0,0,1,.29,1.884q0,.367-.029.725t-.064.567Zm3.922-1.911a2.434,2.434,0,0,0-.515-1.5,1.625,1.625,0,0,0-1.324-.57,1.906,1.906,0,0,0-1.469.537,2.542,2.542,0,0,0-.6,1.526Zm4.985-3.922q.29-.058.551-.087a5.183,5.183,0,0,1,.57-.029,4.167,4.167,0,0,1,.57.039q.28.039.551.1a1.112,1.112,0,0,1,.107.28q.048.184.087.386t.068.406l.048.338a4.979,4.979,0,0,1,1.043-1.073,2.469,2.469,0,0,1,1.546-.473q.193,0,.444.019a1.671,1.671,0,0,1,.367.058,3.758,3.758,0,0,1,.058.444q.019.251.019.522,0,.328-.029.715a5.163,5.163,0,0,1-.107.734,2.657,2.657,0,0,0-.473-.039h-.322a4.508,4.508,0,0,0-.734.068,1.69,1.69,0,0,0-.773.357,2.115,2.115,0,0,0-.609.87,4.35,4.35,0,0,0-.238,1.624V1a6.382,6.382,0,0,1-.7.077q-.348.019-.676.019t-.667-.019q-.338-.019-.705-.077ZM54.7-3.17a2.1,2.1,0,0,0,.816,1.685,3.267,3.267,0,0,0,1.932.522A7.448,7.448,0,0,0,58.8-1.089a7.611,7.611,0,0,0,1.3-.357,4.487,4.487,0,0,1,.359.927A4.747,4.747,0,0,1,60.632.64a9.414,9.414,0,0,1-3.394.575A6.594,6.594,0,0,1,54.852.829,4.235,4.235,0,0,1,53.229-.244,4.3,4.3,0,0,1,52.3-1.876,6.824,6.824,0,0,1,52-3.943a6.746,6.746,0,0,1,.309-2.068,4.831,4.831,0,0,1,.918-1.681,4.342,4.342,0,0,1,1.5-1.13,4.951,4.951,0,0,1,2.1-.415,4.456,4.456,0,0,1,1.855.367,4.089,4.089,0,0,1,1.382,1,4.233,4.233,0,0,1,.859,1.517,5.98,5.98,0,0,1,.29,1.884q0,.367-.029.725t-.068.57Zm3.922-1.913a2.434,2.434,0,0,0-.512-1.5,1.625,1.625,0,0,0-1.324-.57,1.906,1.906,0,0,0-1.469.537,2.542,2.542,0,0,0-.6,1.526Z" transform="translate(6195.969 3513.071)" fill="#fff"/>
  </g>
</svg>
